M48
; DRILL file {KiCad 8.0.4-8.0.4-0~ubuntu22.04.1} date 2024-09-04T19:27:49-0400
; FORMAT={-:-/ absolute / metric / decimal}
; #@! TF.CreationDate,2024-09-04T19:27:49-04:00
; #@! TF.GenerationSoftware,Kicad,Pcbnew,8.0.4-8.0.4-0~ubuntu22.04.1
; #@! TF.FileFunction,MixedPlating,1,2
FMAT,2
METRIC
; #@! TA.AperFunction,Plated,PTH,ComponentDrill
T1C0.600
; #@! TA.AperFunction,Plated,PTH,ComponentDrill
T2C3.200
%
G90
G05
T1
X-18.6Y-50.0
X-18.6Y-75.0
X-16.8Y-45.7
X-16.8Y-54.3
X-16.8Y-70.7
X-16.8Y-79.3
X-12.5Y-43.9
X-12.5Y-56.1
X-12.5Y-68.9
X-12.5Y-81.1
X-8.3Y-54.4
X-8.3Y-79.4
X-8.2Y-45.7
X-8.2Y-70.7
X-6.4Y-50.0
X-6.4Y-75.0
X-4.7Y65.0
X-4.7Y25.0
X-4.7Y-10.0
X-3.3Y68.3
X-3.3Y61.7
X-3.3Y28.3
X-3.3Y21.7
X-3.3Y-6.7
X-3.3Y-13.3
X0.0Y69.7
X0.0Y60.3
X0.0Y29.7
X0.0Y20.3
X0.0Y-5.3
X0.0Y-14.7
X3.2Y61.6
X3.2Y21.6
X3.2Y-13.4
X3.3Y68.3
X3.3Y28.3
X3.3Y-6.7
X4.7Y65.0
X4.7Y25.0
X4.7Y-10.0
X6.4Y-50.0
X6.4Y-75.0
X8.2Y-45.7
X8.2Y-54.3
X8.2Y-70.7
X8.2Y-79.3
X12.5Y-43.9
X12.5Y-56.1
X12.5Y-68.9
X12.5Y-81.1
X16.7Y-54.4
X16.7Y-79.4
X16.8Y-45.7
X16.8Y-70.7
X18.6Y-50.0
X18.6Y-75.0
T2
X-22.0Y97.0G85X-19.2Y97.0
G05
X-22.0Y-97.0G85X-19.2Y-97.0
G05
X22.0Y97.0G85X19.2Y97.0
G05
X22.0Y-97.0G85X19.2Y-97.0
G05
M30
