G04 #@! TF.GenerationSoftware,KiCad,Pcbnew,6.0.4-6f826c9f35~116~ubuntu20.04.1*
G04 #@! TF.CreationDate,2022-04-20T18:01:45-04:00*
G04 #@! TF.ProjectId,dualrect_panel,6475616c-7265-4637-945f-70616e656c2e,rev?*
G04 #@! TF.SameCoordinates,Original*
G04 #@! TF.FileFunction,Other,Comment*
%FSLAX46Y46*%
G04 Gerber Fmt 4.6, Leading zero omitted, Abs format (unit mm)*
G04 Created by KiCad (PCBNEW 6.0.4-6f826c9f35~116~ubuntu20.04.1) date 2022-04-20 18:01:45*
%MOMM*%
%LPD*%
G01*
G04 APERTURE LIST*
%ADD10C,0.120000*%
%ADD11C,0.150000*%
G04 APERTURE END LIST*
D10*
G04 #@! TO.C,H12*
X63100000Y-207600000D02*
X60300000Y-207600000D01*
X63100000Y-201600000D02*
X60300000Y-201600000D01*
X63100000Y-13600000D02*
X60300000Y-13600000D01*
X63100000Y-7600000D02*
X60300000Y-7600000D01*
X63100000Y-13600000D02*
G75*
G03*
X63100000Y-7600000I0J3000000D01*
G01*
X60300000Y-7600000D02*
G75*
G03*
X60300000Y-13600000I0J-3000000D01*
G01*
X60300000Y-201600000D02*
G75*
G03*
X60300000Y-207600000I0J-3000000D01*
G01*
X63100000Y-207600000D02*
G75*
G03*
X63100000Y-201600000I0J3000000D01*
G01*
D11*
G04 #@! TO.C,H7*
X34500000Y-44100000D02*
G75*
G03*
X34500000Y-44100000I-6000000J0D01*
G01*
G04 #@! TO.C,H1*
X38100000Y-157600000D02*
G75*
G03*
X38100000Y-157600000I-9500000J0D01*
G01*
D10*
G04 #@! TO.C,H11*
X19100000Y-207600000D02*
X21900000Y-207600000D01*
X19100000Y-7600000D02*
X21900000Y-7600000D01*
X19100000Y-201600000D02*
X21900000Y-201600000D01*
X19100000Y-13600000D02*
X21900000Y-13600000D01*
X21900000Y-207600000D02*
G75*
G03*
X21900000Y-201600000I0J3000000D01*
G01*
X21900000Y-13600000D02*
G75*
G03*
X21900000Y-7600000I0J3000000D01*
G01*
X19100000Y-201600000D02*
G75*
G03*
X19100000Y-207600000I0J-3000000D01*
G01*
X19100000Y-7600000D02*
G75*
G03*
X19100000Y-13600000I0J-3000000D01*
G01*
D11*
G04 #@! TO.C,H2*
X38100000Y-182600000D02*
G75*
G03*
X38100000Y-182600000I-9500000J0D01*
G01*
G04 #@! TO.C,H4*
X63100000Y-157600000D02*
G75*
G03*
X63100000Y-157600000I-9500000J0D01*
G01*
G04 #@! TO.C,H5*
X63100000Y-182600000D02*
G75*
G03*
X63100000Y-182600000I-9500000J0D01*
G01*
G04 #@! TO.C,H6*
X38100000Y-132600000D02*
G75*
G03*
X38100000Y-132600000I-9500000J0D01*
G01*
G04 #@! TO.C,H9*
X59500000Y-63150000D02*
G75*
G03*
X59500000Y-63150000I-6000000J0D01*
G01*
G04 #@! TO.C,H3*
X63100000Y-132600000D02*
G75*
G03*
X63100000Y-132600000I-9500000J0D01*
G01*
G04 #@! TO.C,H10*
X34500000Y-82200000D02*
G75*
G03*
X34500000Y-82200000I-6000000J0D01*
G01*
G04 #@! TO.C,H8*
X59500000Y-101250000D02*
G75*
G03*
X59500000Y-101250000I-6000000J0D01*
G01*
G04 #@! TD*
M02*
