(kicad_sch (version 20230121) (generator eeschema)

  (uuid a31afd2a-fb6e-407b-944d-1311568d1567)

  (paper "A4")

  (lib_symbols
    (symbol "Mechanical:MountingHole_Pad" (pin_numbers hide) (pin_names (offset 1.016) hide) (in_bom yes) (on_board yes)
      (property "Reference" "H" (at 0 6.35 0)
        (effects (font (size 1.27 1.27)))
      )
      (property "Value" "MountingHole_Pad" (at 0 4.445 0)
        (effects (font (size 1.27 1.27)))
      )
      (property "Footprint" "" (at 0 0 0)
        (effects (font (size 1.27 1.27)) hide)
      )
      (property "Datasheet" "~" (at 0 0 0)
        (effects (font (size 1.27 1.27)) hide)
      )
      (property "ki_keywords" "mounting hole" (at 0 0 0)
        (effects (font (size 1.27 1.27)) hide)
      )
      (property "ki_description" "Mounting Hole with connection" (at 0 0 0)
        (effects (font (size 1.27 1.27)) hide)
      )
      (property "ki_fp_filters" "MountingHole*Pad*" (at 0 0 0)
        (effects (font (size 1.27 1.27)) hide)
      )
      (symbol "MountingHole_Pad_0_1"
        (circle (center 0 1.27) (radius 1.27)
          (stroke (width 1.27) (type default))
          (fill (type none))
        )
      )
      (symbol "MountingHole_Pad_1_1"
        (pin input line (at 0 -2.54 90) (length 2.54)
          (name "1" (effects (font (size 1.27 1.27))))
          (number "1" (effects (font (size 1.27 1.27))))
        )
      )
    )
    (symbol "power:GND" (power) (pin_names (offset 0)) (in_bom yes) (on_board yes)
      (property "Reference" "#PWR" (at 0 -6.35 0)
        (effects (font (size 1.27 1.27)) hide)
      )
      (property "Value" "GND" (at 0 -3.81 0)
        (effects (font (size 1.27 1.27)))
      )
      (property "Footprint" "" (at 0 0 0)
        (effects (font (size 1.27 1.27)) hide)
      )
      (property "Datasheet" "" (at 0 0 0)
        (effects (font (size 1.27 1.27)) hide)
      )
      (property "ki_keywords" "global power" (at 0 0 0)
        (effects (font (size 1.27 1.27)) hide)
      )
      (property "ki_description" "Power symbol creates a global label with name \"GND\" , ground" (at 0 0 0)
        (effects (font (size 1.27 1.27)) hide)
      )
      (symbol "GND_0_1"
        (polyline
          (pts
            (xy 0 0)
            (xy 0 -1.27)
            (xy 1.27 -1.27)
            (xy 0 -2.54)
            (xy -1.27 -1.27)
            (xy 0 -1.27)
          )
          (stroke (width 0) (type default))
          (fill (type none))
        )
      )
      (symbol "GND_1_1"
        (pin power_in line (at 0 0 270) (length 0) hide
          (name "GND" (effects (font (size 1.27 1.27))))
          (number "1" (effects (font (size 1.27 1.27))))
        )
      )
    )
  )

  (junction (at 76.2 54.61) (diameter 0) (color 0 0 0 0)
    (uuid 049f3963-c6af-4f02-96fc-3c4cecdf4c92)
  )
  (junction (at 76.2 92.71) (diameter 0) (color 0 0 0 0)
    (uuid 06258294-81c3-4276-a9da-a31dc0644353)
  )
  (junction (at 57.15 80.01) (diameter 0) (color 0 0 0 0)
    (uuid 069f7b5e-f5f9-43f2-a985-edfe4ce20c5c)
  )
  (junction (at 57.15 67.31) (diameter 0) (color 0 0 0 0)
    (uuid 09ea2eb5-e070-4a60-9520-113974ef77b1)
  )
  (junction (at 76.2 80.01) (diameter 0) (color 0 0 0 0)
    (uuid 0abcd7a9-d9bb-45ab-a099-054af3737e1f)
  )
  (junction (at 114.3 54.61) (diameter 0) (color 0 0 0 0)
    (uuid 1f932500-9234-4ad7-9cf1-aff1e27969bf)
  )
  (junction (at 57.15 105.41) (diameter 0) (color 0 0 0 0)
    (uuid 247ca8c0-8ade-454a-94c9-6f4588e5e1fa)
  )
  (junction (at 114.3 80.01) (diameter 0) (color 0 0 0 0)
    (uuid 2d43d422-d9ca-498e-bf83-4e402c1dd29b)
  )
  (junction (at 63.5 54.61) (diameter 0) (color 0 0 0 0)
    (uuid 3be2263d-93af-4473-95cb-6d72568e0359)
  )
  (junction (at 63.5 92.71) (diameter 0) (color 0 0 0 0)
    (uuid 422a4281-b406-451b-bbf3-e557ad5ff911)
  )
  (junction (at 88.9 80.01) (diameter 0) (color 0 0 0 0)
    (uuid 528774d9-3579-4f05-b36e-5e4826dcf322)
  )
  (junction (at 57.15 92.71) (diameter 0) (color 0 0 0 0)
    (uuid 59a24a2b-c045-4c0d-9404-df50b34d2012)
  )
  (junction (at 88.9 92.71) (diameter 0) (color 0 0 0 0)
    (uuid 61502ca6-1aae-4c33-aa7d-2373c73c6c54)
  )
  (junction (at 76.2 105.41) (diameter 0) (color 0 0 0 0)
    (uuid 66ca7f93-a486-492e-a621-17f539711885)
  )
  (junction (at 101.6 54.61) (diameter 0) (color 0 0 0 0)
    (uuid 7fd5b98a-bcba-40ab-ae92-35e3d7887c75)
  )
  (junction (at 63.5 80.01) (diameter 0) (color 0 0 0 0)
    (uuid 8aca3d36-7831-49c2-977c-c784582e7a6a)
  )
  (junction (at 101.6 80.01) (diameter 0) (color 0 0 0 0)
    (uuid cdd37631-9f98-442a-bd04-09902328fe98)
  )
  (junction (at 63.5 105.41) (diameter 0) (color 0 0 0 0)
    (uuid ec509d75-47f3-4043-a1b7-ef42311df1a4)
  )
  (junction (at 88.9 54.61) (diameter 0) (color 0 0 0 0)
    (uuid f57237d6-ca5a-4192-9a45-fb35c175ff31)
  )
  (junction (at 88.9 105.41) (diameter 0) (color 0 0 0 0)
    (uuid fa833e28-55ad-4229-897b-b614fc3cf11a)
  )

  (wire (pts (xy 114.3 54.61) (xy 101.6 54.61))
    (stroke (width 0) (type default))
    (uuid 0492fe8d-adaa-4450-b25f-ce96c56406c1)
  )
  (wire (pts (xy 57.15 105.41) (xy 63.5 105.41))
    (stroke (width 0) (type default))
    (uuid 0f7747fc-270c-4621-abf8-3df206934f66)
  )
  (wire (pts (xy 57.15 80.01) (xy 63.5 80.01))
    (stroke (width 0) (type default))
    (uuid 0fac2f8f-5670-46d5-bebc-9d2d44633024)
  )
  (wire (pts (xy 57.15 92.71) (xy 57.15 105.41))
    (stroke (width 0) (type default))
    (uuid 118b35c9-5a5a-4c62-87de-973a0e5c75d0)
  )
  (wire (pts (xy 57.15 80.01) (xy 57.15 92.71))
    (stroke (width 0) (type default))
    (uuid 21668888-d2ee-4e04-85ac-8ef6bbe010c6)
  )
  (wire (pts (xy 88.9 105.41) (xy 101.6 105.41))
    (stroke (width 0) (type default))
    (uuid 253ca13e-cea0-4b95-8d6b-df964ee80c25)
  )
  (wire (pts (xy 57.15 67.31) (xy 57.15 80.01))
    (stroke (width 0) (type default))
    (uuid 27076c5f-4074-47fe-9610-720c794bbad4)
  )
  (wire (pts (xy 88.9 92.71) (xy 101.6 92.71))
    (stroke (width 0) (type default))
    (uuid 2ddc0c3f-bb67-42be-a6cd-f0d7d1b37814)
  )
  (wire (pts (xy 127 54.61) (xy 114.3 54.61))
    (stroke (width 0) (type default))
    (uuid 42622371-8b8a-4722-9df1-8bfc34832235)
  )
  (wire (pts (xy 101.6 80.01) (xy 114.3 80.01))
    (stroke (width 0) (type default))
    (uuid 59a7607c-dfd6-4ba8-9e8c-64882dd8de71)
  )
  (wire (pts (xy 114.3 80.01) (xy 127 80.01))
    (stroke (width 0) (type default))
    (uuid 5c59a0d8-95c0-4f3c-a17f-0b541a29bde6)
  )
  (wire (pts (xy 63.5 54.61) (xy 57.15 54.61))
    (stroke (width 0) (type default))
    (uuid 76598f43-6b65-4c5f-b298-091b4ade4028)
  )
  (wire (pts (xy 63.5 105.41) (xy 76.2 105.41))
    (stroke (width 0) (type default))
    (uuid 83c2bb72-9b64-46d8-8fbd-aa95ae1a0e29)
  )
  (wire (pts (xy 57.15 92.71) (xy 63.5 92.71))
    (stroke (width 0) (type default))
    (uuid 8e0e4843-9188-4b06-b429-cc95acd8c630)
  )
  (wire (pts (xy 88.9 54.61) (xy 76.2 54.61))
    (stroke (width 0) (type default))
    (uuid a1ed87fc-3cd8-4ff8-8374-9e8966d018c8)
  )
  (wire (pts (xy 101.6 54.61) (xy 88.9 54.61))
    (stroke (width 0) (type default))
    (uuid aea99ade-4db4-4e1a-8534-949fad089b42)
  )
  (wire (pts (xy 57.15 54.61) (xy 57.15 67.31))
    (stroke (width 0) (type default))
    (uuid b5d8ee0f-4ed9-4582-bc14-a7b388022a82)
  )
  (wire (pts (xy 76.2 92.71) (xy 88.9 92.71))
    (stroke (width 0) (type default))
    (uuid c15d50ae-2135-4153-8724-bc6b23bb840e)
  )
  (wire (pts (xy 76.2 80.01) (xy 88.9 80.01))
    (stroke (width 0) (type default))
    (uuid cf5fab82-6792-4020-b803-a82489fa241b)
  )
  (wire (pts (xy 63.5 80.01) (xy 76.2 80.01))
    (stroke (width 0) (type default))
    (uuid d44b788b-3e51-455e-89dc-e54270c71f27)
  )
  (wire (pts (xy 57.15 67.31) (xy 63.5 67.31))
    (stroke (width 0) (type default))
    (uuid d8d041a7-6ffc-4543-ab54-d40a39845af4)
  )
  (wire (pts (xy 76.2 105.41) (xy 88.9 105.41))
    (stroke (width 0) (type default))
    (uuid da17f2da-0514-4052-8e7c-e5682f538d51)
  )
  (wire (pts (xy 63.5 92.71) (xy 76.2 92.71))
    (stroke (width 0) (type default))
    (uuid e0fb22d6-808f-4cdb-a3e3-76b9b6e0fe63)
  )
  (wire (pts (xy 88.9 80.01) (xy 101.6 80.01))
    (stroke (width 0) (type default))
    (uuid efc72a23-4bb0-4f28-a771-cfd918ad5a70)
  )
  (wire (pts (xy 76.2 54.61) (xy 63.5 54.61))
    (stroke (width 0) (type default))
    (uuid f6e66212-d403-447f-9b55-ed640792b30b)
  )

  (symbol (lib_id "Mechanical:MountingHole_Pad") (at 63.5 52.07 0) (unit 1)
    (in_bom yes) (on_board yes) (dnp no)
    (uuid 00000000-0000-0000-0000-00005fb200a1)
    (property "Reference" "H1" (at 66.04 50.8254 0)
      (effects (font (size 1.27 1.27)) (justify left))
    )
    (property "Value" "MountingHole_Pad" (at 66.04 53.1368 0)
      (effects (font (size 1.27 1.27)) (justify left))
    )
    (property "Footprint" "Kosmo_panel:Kosmo_Pot_Hole" (at 63.5 52.07 0)
      (effects (font (size 1.27 1.27)) hide)
    )
    (property "Datasheet" "~" (at 63.5 52.07 0)
      (effects (font (size 1.27 1.27)) hide)
    )
    (pin "1" (uuid eea45b33-a57a-43c1-ac1f-1213aba86e2b))
    (instances
      (project "mfos_vco_panel"
        (path "/a31afd2a-fb6e-407b-944d-1311568d1567"
          (reference "H1") (unit 1)
        )
      )
    )
  )

  (symbol (lib_id "Mechanical:MountingHole_Pad") (at 63.5 77.47 0) (unit 1)
    (in_bom yes) (on_board yes) (dnp no)
    (uuid 00000000-0000-0000-0000-00005fb21886)
    (property "Reference" "H3" (at 66.04 76.2254 0)
      (effects (font (size 1.27 1.27)) (justify left))
    )
    (property "Value" "MountingHole_Pad" (at 66.04 78.5368 0)
      (effects (font (size 1.27 1.27)) (justify left))
    )
    (property "Footprint" "Kosmo_panel:Kosmo_Jack_Hole" (at 63.5 77.47 0)
      (effects (font (size 1.27 1.27)) hide)
    )
    (property "Datasheet" "~" (at 63.5 77.47 0)
      (effects (font (size 1.27 1.27)) hide)
    )
    (pin "1" (uuid 64d2191b-b19a-4801-8d2a-6d38e10eb49c))
    (instances
      (project "mfos_vco_panel"
        (path "/a31afd2a-fb6e-407b-944d-1311568d1567"
          (reference "H3") (unit 1)
        )
      )
    )
  )

  (symbol (lib_id "Mechanical:MountingHole_Pad") (at 63.5 64.77 0) (unit 1)
    (in_bom yes) (on_board yes) (dnp no)
    (uuid 00000000-0000-0000-0000-00005fb262ba)
    (property "Reference" "H2" (at 66.04 63.5254 0)
      (effects (font (size 1.27 1.27)) (justify left))
    )
    (property "Value" "MountingHole_Pad" (at 66.04 65.8368 0)
      (effects (font (size 1.27 1.27)) (justify left))
    )
    (property "Footprint" "Kosmo_panel:Kosmo_Switch_Hole" (at 63.5 64.77 0)
      (effects (font (size 1.27 1.27)) hide)
    )
    (property "Datasheet" "~" (at 63.5 64.77 0)
      (effects (font (size 1.27 1.27)) hide)
    )
    (pin "1" (uuid a22f6d5d-87ae-43be-85f1-a38a188ae5f0))
    (instances
      (project "mfos_vco_panel"
        (path "/a31afd2a-fb6e-407b-944d-1311568d1567"
          (reference "H2") (unit 1)
        )
      )
    )
  )

  (symbol (lib_id "Mechanical:MountingHole_Pad") (at 63.5 102.87 0) (unit 1)
    (in_bom yes) (on_board yes) (dnp no)
    (uuid 00000000-0000-0000-0000-00005fb26eb0)
    (property "Reference" "H5" (at 66.04 101.6254 0)
      (effects (font (size 1.27 1.27)) (justify left))
    )
    (property "Value" "MountingHole_Pad" (at 66.04 103.9368 0)
      (effects (font (size 1.27 1.27)) (justify left))
    )
    (property "Footprint" "Kosmo_panel:Kosmo_Panel_Slotted_Mounting_Hole" (at 63.5 102.87 0)
      (effects (font (size 1.27 1.27)) hide)
    )
    (property "Datasheet" "~" (at 63.5 102.87 0)
      (effects (font (size 1.27 1.27)) hide)
    )
    (pin "1" (uuid 9c8a352f-c70c-4580-a552-7b0a6613bc80))
    (instances
      (project "mfos_vco_panel"
        (path "/a31afd2a-fb6e-407b-944d-1311568d1567"
          (reference "H5") (unit 1)
        )
      )
    )
  )

  (symbol (lib_id "Mechanical:MountingHole_Pad") (at 63.5 90.17 0) (unit 1)
    (in_bom yes) (on_board yes) (dnp no)
    (uuid 00000000-0000-0000-0000-00005fb27330)
    (property "Reference" "H4" (at 66.04 88.9254 0)
      (effects (font (size 1.27 1.27)) (justify left))
    )
    (property "Value" "MountingHole_Pad" (at 66.04 91.2368 0)
      (effects (font (size 1.27 1.27)) (justify left))
    )
    (property "Footprint" "Kosmo_panel:Kosmo_Jack_Hole" (at 63.5 90.17 0)
      (effects (font (size 1.27 1.27)) hide)
    )
    (property "Datasheet" "~" (at 63.5 90.17 0)
      (effects (font (size 1.27 1.27)) hide)
    )
    (pin "1" (uuid 68b78f3f-850e-4c47-9656-0ce14ba12dbf))
    (instances
      (project "mfos_vco_panel"
        (path "/a31afd2a-fb6e-407b-944d-1311568d1567"
          (reference "H4") (unit 1)
        )
      )
    )
  )

  (symbol (lib_id "Mechanical:MountingHole_Pad") (at 76.2 52.07 0) (unit 1)
    (in_bom yes) (on_board yes) (dnp no)
    (uuid 00000000-0000-0000-0000-00005fb28336)
    (property "Reference" "H6" (at 78.74 50.8254 0)
      (effects (font (size 1.27 1.27)) (justify left))
    )
    (property "Value" "MountingHole_Pad" (at 78.74 53.1368 0)
      (effects (font (size 1.27 1.27)) (justify left))
    )
    (property "Footprint" "Kosmo_panel:Kosmo_Pot_Hole" (at 76.2 52.07 0)
      (effects (font (size 1.27 1.27)) hide)
    )
    (property "Datasheet" "~" (at 76.2 52.07 0)
      (effects (font (size 1.27 1.27)) hide)
    )
    (pin "1" (uuid d3a9cdcb-d9e8-43ff-94de-dbb7391edb0d))
    (instances
      (project "mfos_vco_panel"
        (path "/a31afd2a-fb6e-407b-944d-1311568d1567"
          (reference "H6") (unit 1)
        )
      )
    )
  )

  (symbol (lib_id "Mechanical:MountingHole_Pad") (at 76.2 77.47 0) (unit 1)
    (in_bom yes) (on_board yes) (dnp no)
    (uuid 00000000-0000-0000-0000-00005fb2834a)
    (property "Reference" "H7" (at 78.74 76.2254 0)
      (effects (font (size 1.27 1.27)) (justify left))
    )
    (property "Value" "MountingHole_Pad" (at 78.74 78.5368 0)
      (effects (font (size 1.27 1.27)) (justify left))
    )
    (property "Footprint" "Kosmo_panel:Kosmo_Jack_Hole" (at 76.2 77.47 0)
      (effects (font (size 1.27 1.27)) hide)
    )
    (property "Datasheet" "~" (at 76.2 77.47 0)
      (effects (font (size 1.27 1.27)) hide)
    )
    (pin "1" (uuid eab025d2-4a3c-4de1-aa46-e5af2147075c))
    (instances
      (project "mfos_vco_panel"
        (path "/a31afd2a-fb6e-407b-944d-1311568d1567"
          (reference "H7") (unit 1)
        )
      )
    )
  )

  (symbol (lib_id "Mechanical:MountingHole_Pad") (at 76.2 102.87 0) (unit 1)
    (in_bom yes) (on_board yes) (dnp no)
    (uuid 00000000-0000-0000-0000-00005fb2835e)
    (property "Reference" "H9" (at 78.74 101.6254 0)
      (effects (font (size 1.27 1.27)) (justify left))
    )
    (property "Value" "MountingHole_Pad" (at 78.74 103.9368 0)
      (effects (font (size 1.27 1.27)) (justify left))
    )
    (property "Footprint" "Kosmo_panel:Kosmo_Panel_Slotted_Mounting_Hole" (at 76.2 102.87 0)
      (effects (font (size 1.27 1.27)) hide)
    )
    (property "Datasheet" "~" (at 76.2 102.87 0)
      (effects (font (size 1.27 1.27)) hide)
    )
    (pin "1" (uuid 869e24de-4d0c-4e60-b700-e845214a9fa7))
    (instances
      (project "mfos_vco_panel"
        (path "/a31afd2a-fb6e-407b-944d-1311568d1567"
          (reference "H9") (unit 1)
        )
      )
    )
  )

  (symbol (lib_id "Mechanical:MountingHole_Pad") (at 76.2 90.17 0) (unit 1)
    (in_bom yes) (on_board yes) (dnp no)
    (uuid 00000000-0000-0000-0000-00005fb28368)
    (property "Reference" "H8" (at 78.74 88.9254 0)
      (effects (font (size 1.27 1.27)) (justify left))
    )
    (property "Value" "MountingHole_Pad" (at 78.74 91.2368 0)
      (effects (font (size 1.27 1.27)) (justify left))
    )
    (property "Footprint" "Kosmo_panel:Kosmo_Jack_Hole" (at 76.2 90.17 0)
      (effects (font (size 1.27 1.27)) hide)
    )
    (property "Datasheet" "~" (at 76.2 90.17 0)
      (effects (font (size 1.27 1.27)) hide)
    )
    (pin "1" (uuid 8e6bb6d0-ba7d-4568-92fd-ec0c3bc6adbd))
    (instances
      (project "mfos_vco_panel"
        (path "/a31afd2a-fb6e-407b-944d-1311568d1567"
          (reference "H8") (unit 1)
        )
      )
    )
  )

  (symbol (lib_id "Mechanical:MountingHole_Pad") (at 88.9 52.07 0) (unit 1)
    (in_bom yes) (on_board yes) (dnp no)
    (uuid 00000000-0000-0000-0000-00005fb2920d)
    (property "Reference" "H10" (at 91.44 50.8254 0)
      (effects (font (size 1.27 1.27)) (justify left))
    )
    (property "Value" "MountingHole_Pad" (at 91.44 53.1368 0)
      (effects (font (size 1.27 1.27)) (justify left))
    )
    (property "Footprint" "Kosmo_panel:Kosmo_Pot_Hole" (at 88.9 52.07 0)
      (effects (font (size 1.27 1.27)) hide)
    )
    (property "Datasheet" "~" (at 88.9 52.07 0)
      (effects (font (size 1.27 1.27)) hide)
    )
    (pin "1" (uuid af2e5acf-89f2-455c-8b77-82f3e7086483))
    (instances
      (project "mfos_vco_panel"
        (path "/a31afd2a-fb6e-407b-944d-1311568d1567"
          (reference "H10") (unit 1)
        )
      )
    )
  )

  (symbol (lib_id "Mechanical:MountingHole_Pad") (at 88.9 77.47 0) (unit 1)
    (in_bom yes) (on_board yes) (dnp no)
    (uuid 00000000-0000-0000-0000-00005fb29221)
    (property "Reference" "H11" (at 91.44 76.2254 0)
      (effects (font (size 1.27 1.27)) (justify left))
    )
    (property "Value" "MountingHole_Pad" (at 91.44 78.5368 0)
      (effects (font (size 1.27 1.27)) (justify left))
    )
    (property "Footprint" "Kosmo_panel:Kosmo_Jack_Hole" (at 88.9 77.47 0)
      (effects (font (size 1.27 1.27)) hide)
    )
    (property "Datasheet" "~" (at 88.9 77.47 0)
      (effects (font (size 1.27 1.27)) hide)
    )
    (pin "1" (uuid ebdbc5a7-8f8a-4156-8e1f-2ea635dcee07))
    (instances
      (project "mfos_vco_panel"
        (path "/a31afd2a-fb6e-407b-944d-1311568d1567"
          (reference "H11") (unit 1)
        )
      )
    )
  )

  (symbol (lib_id "Mechanical:MountingHole_Pad") (at 88.9 102.87 0) (unit 1)
    (in_bom yes) (on_board yes) (dnp no)
    (uuid 00000000-0000-0000-0000-00005fb2922b)
    (property "Reference" "H13" (at 91.44 101.6254 0)
      (effects (font (size 1.27 1.27)) (justify left))
    )
    (property "Value" "MountingHole_Pad" (at 91.44 103.9368 0)
      (effects (font (size 1.27 1.27)) (justify left))
    )
    (property "Footprint" "Kosmo_panel:Kosmo_Panel_Slotted_Mounting_Hole" (at 88.9 102.87 0)
      (effects (font (size 1.27 1.27)) hide)
    )
    (property "Datasheet" "~" (at 88.9 102.87 0)
      (effects (font (size 1.27 1.27)) hide)
    )
    (pin "1" (uuid ce69eb76-f2f5-442a-8305-363f8bc67c00))
    (instances
      (project "mfos_vco_panel"
        (path "/a31afd2a-fb6e-407b-944d-1311568d1567"
          (reference "H13") (unit 1)
        )
      )
    )
  )

  (symbol (lib_id "Mechanical:MountingHole_Pad") (at 88.9 90.17 0) (unit 1)
    (in_bom yes) (on_board yes) (dnp no)
    (uuid 00000000-0000-0000-0000-00005fb29235)
    (property "Reference" "H12" (at 91.44 88.9254 0)
      (effects (font (size 1.27 1.27)) (justify left))
    )
    (property "Value" "MountingHole_Pad" (at 91.44 91.2368 0)
      (effects (font (size 1.27 1.27)) (justify left))
    )
    (property "Footprint" "Kosmo_panel:Kosmo_Jack_Hole" (at 88.9 90.17 0)
      (effects (font (size 1.27 1.27)) hide)
    )
    (property "Datasheet" "~" (at 88.9 90.17 0)
      (effects (font (size 1.27 1.27)) hide)
    )
    (pin "1" (uuid 57c973e8-7011-4e79-b112-c8deaf1eb1b8))
    (instances
      (project "mfos_vco_panel"
        (path "/a31afd2a-fb6e-407b-944d-1311568d1567"
          (reference "H12") (unit 1)
        )
      )
    )
  )

  (symbol (lib_id "Mechanical:MountingHole_Pad") (at 101.6 52.07 0) (unit 1)
    (in_bom yes) (on_board yes) (dnp no)
    (uuid 00000000-0000-0000-0000-00005fb29c77)
    (property "Reference" "H14" (at 104.14 50.8254 0)
      (effects (font (size 1.27 1.27)) (justify left))
    )
    (property "Value" "MountingHole_Pad" (at 104.14 53.1368 0)
      (effects (font (size 1.27 1.27)) (justify left))
    )
    (property "Footprint" "Kosmo_panel:Kosmo_Pot_Hole" (at 101.6 52.07 0)
      (effects (font (size 1.27 1.27)) hide)
    )
    (property "Datasheet" "~" (at 101.6 52.07 0)
      (effects (font (size 1.27 1.27)) hide)
    )
    (pin "1" (uuid c41c1b7d-b391-47fe-9199-1c5e5e6aa453))
    (instances
      (project "mfos_vco_panel"
        (path "/a31afd2a-fb6e-407b-944d-1311568d1567"
          (reference "H14") (unit 1)
        )
      )
    )
  )

  (symbol (lib_id "Mechanical:MountingHole_Pad") (at 101.6 77.47 0) (unit 1)
    (in_bom yes) (on_board yes) (dnp no)
    (uuid 00000000-0000-0000-0000-00005fb29c8b)
    (property "Reference" "H15" (at 104.14 76.2254 0)
      (effects (font (size 1.27 1.27)) (justify left))
    )
    (property "Value" "MountingHole_Pad" (at 104.14 78.5368 0)
      (effects (font (size 1.27 1.27)) (justify left))
    )
    (property "Footprint" "Kosmo_panel:Kosmo_Jack_Hole" (at 101.6 77.47 0)
      (effects (font (size 1.27 1.27)) hide)
    )
    (property "Datasheet" "~" (at 101.6 77.47 0)
      (effects (font (size 1.27 1.27)) hide)
    )
    (pin "1" (uuid 96a39f14-fc7b-4ed0-9758-2fd0524f9506))
    (instances
      (project "mfos_vco_panel"
        (path "/a31afd2a-fb6e-407b-944d-1311568d1567"
          (reference "H15") (unit 1)
        )
      )
    )
  )

  (symbol (lib_id "Mechanical:MountingHole_Pad") (at 101.6 102.87 0) (unit 1)
    (in_bom yes) (on_board yes) (dnp no)
    (uuid 00000000-0000-0000-0000-00005fb29c95)
    (property "Reference" "H17" (at 104.14 101.6254 0)
      (effects (font (size 1.27 1.27)) (justify left))
    )
    (property "Value" "MountingHole_Pad" (at 104.14 103.9368 0)
      (effects (font (size 1.27 1.27)) (justify left))
    )
    (property "Footprint" "Kosmo_panel:Kosmo_Panel_Slotted_Mounting_Hole" (at 101.6 102.87 0)
      (effects (font (size 1.27 1.27)) hide)
    )
    (property "Datasheet" "~" (at 101.6 102.87 0)
      (effects (font (size 1.27 1.27)) hide)
    )
    (pin "1" (uuid 75da775c-4fa2-43ba-9f22-f610ef01843a))
    (instances
      (project "mfos_vco_panel"
        (path "/a31afd2a-fb6e-407b-944d-1311568d1567"
          (reference "H17") (unit 1)
        )
      )
    )
  )

  (symbol (lib_id "Mechanical:MountingHole_Pad") (at 101.6 90.17 0) (unit 1)
    (in_bom yes) (on_board yes) (dnp no)
    (uuid 00000000-0000-0000-0000-00005fb29c9f)
    (property "Reference" "H16" (at 104.14 88.9254 0)
      (effects (font (size 1.27 1.27)) (justify left))
    )
    (property "Value" "MountingHole_Pad" (at 104.14 91.2368 0)
      (effects (font (size 1.27 1.27)) (justify left))
    )
    (property "Footprint" "Kosmo_panel:Kosmo_Jack_Hole" (at 101.6 90.17 0)
      (effects (font (size 1.27 1.27)) hide)
    )
    (property "Datasheet" "~" (at 101.6 90.17 0)
      (effects (font (size 1.27 1.27)) hide)
    )
    (pin "1" (uuid 73b41dd6-8ab0-4666-b819-a5c60d426133))
    (instances
      (project "mfos_vco_panel"
        (path "/a31afd2a-fb6e-407b-944d-1311568d1567"
          (reference "H16") (unit 1)
        )
      )
    )
  )

  (symbol (lib_id "Mechanical:MountingHole_Pad") (at 114.3 52.07 0) (unit 1)
    (in_bom yes) (on_board yes) (dnp no)
    (uuid 00000000-0000-0000-0000-00005fb2a61b)
    (property "Reference" "H18" (at 116.84 50.8254 0)
      (effects (font (size 1.27 1.27)) (justify left))
    )
    (property "Value" "MountingHole_Pad" (at 116.84 53.1368 0)
      (effects (font (size 1.27 1.27)) (justify left))
    )
    (property "Footprint" "Kosmo_panel:Kosmo_Pot_Hole" (at 114.3 52.07 0)
      (effects (font (size 1.27 1.27)) hide)
    )
    (property "Datasheet" "~" (at 114.3 52.07 0)
      (effects (font (size 1.27 1.27)) hide)
    )
    (pin "1" (uuid 08ce6c92-d055-4ce5-aafa-618bc4e836a0))
    (instances
      (project "mfos_vco_panel"
        (path "/a31afd2a-fb6e-407b-944d-1311568d1567"
          (reference "H18") (unit 1)
        )
      )
    )
  )

  (symbol (lib_id "Mechanical:MountingHole_Pad") (at 114.3 77.47 0) (unit 1)
    (in_bom yes) (on_board yes) (dnp no)
    (uuid 00000000-0000-0000-0000-00005fb2a62f)
    (property "Reference" "H19" (at 116.84 76.2254 0)
      (effects (font (size 1.27 1.27)) (justify left))
    )
    (property "Value" "MountingHole_Pad" (at 116.84 78.5368 0)
      (effects (font (size 1.27 1.27)) (justify left))
    )
    (property "Footprint" "Kosmo_panel:Kosmo_Jack_Hole" (at 114.3 77.47 0)
      (effects (font (size 1.27 1.27)) hide)
    )
    (property "Datasheet" "~" (at 114.3 77.47 0)
      (effects (font (size 1.27 1.27)) hide)
    )
    (pin "1" (uuid b855fdc0-73df-4521-838a-b408edc5f39c))
    (instances
      (project "mfos_vco_panel"
        (path "/a31afd2a-fb6e-407b-944d-1311568d1567"
          (reference "H19") (unit 1)
        )
      )
    )
  )

  (symbol (lib_id "Mechanical:MountingHole_Pad") (at 127 52.07 0) (unit 1)
    (in_bom yes) (on_board yes) (dnp no)
    (uuid 00000000-0000-0000-0000-00005fb2bb4c)
    (property "Reference" "H20" (at 129.54 50.8254 0)
      (effects (font (size 1.27 1.27)) (justify left))
    )
    (property "Value" "MountingHole_Pad" (at 129.54 53.1368 0)
      (effects (font (size 1.27 1.27)) (justify left))
    )
    (property "Footprint" "Kosmo_panel:Kosmo_Pot_Hole" (at 127 52.07 0)
      (effects (font (size 1.27 1.27)) hide)
    )
    (property "Datasheet" "~" (at 127 52.07 0)
      (effects (font (size 1.27 1.27)) hide)
    )
    (pin "1" (uuid fb9275c5-276d-47a7-b3aa-4a7e71e58dee))
    (instances
      (project "mfos_vco_panel"
        (path "/a31afd2a-fb6e-407b-944d-1311568d1567"
          (reference "H20") (unit 1)
        )
      )
    )
  )

  (symbol (lib_id "Mechanical:MountingHole_Pad") (at 127 77.47 0) (unit 1)
    (in_bom yes) (on_board yes) (dnp no)
    (uuid 00000000-0000-0000-0000-00005fb2bb60)
    (property "Reference" "H21" (at 129.54 76.2254 0)
      (effects (font (size 1.27 1.27)) (justify left))
    )
    (property "Value" "MountingHole_Pad" (at 129.54 78.5368 0)
      (effects (font (size 1.27 1.27)) (justify left))
    )
    (property "Footprint" "Kosmo_panel:Kosmo_Jack_Hole" (at 127 77.47 0)
      (effects (font (size 1.27 1.27)) hide)
    )
    (property "Datasheet" "~" (at 127 77.47 0)
      (effects (font (size 1.27 1.27)) hide)
    )
    (pin "1" (uuid 8c8d3a26-5b36-4e8e-a345-0c14dfa67d8e))
    (instances
      (project "mfos_vco_panel"
        (path "/a31afd2a-fb6e-407b-944d-1311568d1567"
          (reference "H21") (unit 1)
        )
      )
    )
  )

  (symbol (lib_id "power:GND") (at 57.15 105.41 0) (unit 1)
    (in_bom yes) (on_board yes) (dnp no)
    (uuid 00000000-0000-0000-0000-00005fb2cee3)
    (property "Reference" "#PWR0101" (at 57.15 111.76 0)
      (effects (font (size 1.27 1.27)) hide)
    )
    (property "Value" "GND" (at 57.277 109.8042 0)
      (effects (font (size 1.27 1.27)))
    )
    (property "Footprint" "" (at 57.15 105.41 0)
      (effects (font (size 1.27 1.27)) hide)
    )
    (property "Datasheet" "" (at 57.15 105.41 0)
      (effects (font (size 1.27 1.27)) hide)
    )
    (pin "1" (uuid 5fec308f-ef21-4890-a745-651cbfc5b89b))
    (instances
      (project "mfos_vco_panel"
        (path "/a31afd2a-fb6e-407b-944d-1311568d1567"
          (reference "#PWR0101") (unit 1)
        )
      )
    )
  )

  (sheet_instances
    (path "/" (page "1"))
  )
)
