(module LOGO (layer F.Cu)
  (at 0 0)
 (fp_text reference "G***" (at 0 0) (layer F.SilkS) hide
  (effects (font (thickness 0.3)))
  )
  (fp_text value "LOGO" (at 0.75 0) (layer F.SilkS) hide
  (effects (font (thickness 0.3)))
  )
  (fp_poly (pts (xy -46.062046 95.405700) (xy -45.741967 95.406949) (xy -45.504100 95.408056) (xy -45.173878 95.409658) (xy -44.890488 95.411184) (xy -44.649963 95.412773) (xy -44.448334 95.414566) (xy -44.281635 95.416703)
     (xy -44.145897 95.419323) (xy -44.037154 95.422567) (xy -43.951437 95.426575) (xy -43.884779 95.431487) (xy -43.833213 95.437442) (xy -43.792770 95.444581) (xy -43.759484 95.453044) (xy -43.729387 95.462972)
     (xy -43.706408 95.471504) (xy -43.426013 95.601334) (xy -43.183374 95.763480) (xy -42.979691 95.956775) (xy -42.816163 96.180054) (xy -42.693990 96.432148) (xy -42.680219 96.469773) (xy -42.630179 96.662326)
     (xy -42.602679 96.880214) (xy -42.598837 97.102710) (xy -42.619774 97.309087) (xy -42.631749 97.367741) (xy -42.717123 97.623025) (xy -42.846754 97.861158) (xy -43.015424 98.076519) (xy -43.217913 98.263484)
     (xy -43.449003 98.416431) (xy -43.703477 98.529738) (xy -43.713400 98.533140) (xy -43.747518 98.544381) (xy -43.781284 98.554023) (xy -43.818726 98.562203) (xy -43.863871 98.569058) (xy -43.920747 98.574725)
     (xy -43.993381 98.579342) (xy -44.085801 98.583045) (xy -44.202035 98.585972) (xy -44.346109 98.588260) (xy -44.522053 98.590046) (xy -44.733893 98.591467) (xy -44.985657 98.592660) (xy -45.281373 98.593763)
     (xy -45.516800 98.594555) (xy -45.864650 98.595494) (xy -46.165229 98.595809) (xy -46.422064 98.595442) (xy -46.638681 98.594338) (xy -46.818606 98.592439) (xy -46.965367 98.589689) (xy -47.082488 98.586031)
     (xy -47.173497 98.581410) (xy -47.241920 98.575767) (xy -47.291283 98.569047) (xy -47.307500 98.565818) (xy -47.584737 98.478867) (xy -47.836013 98.349750) (xy -48.057828 98.181718) (xy -48.246682 97.978026)
     (xy -48.399076 97.741926) (xy -48.511509 97.476671) (xy -48.524763 97.434400) (xy -48.577755 97.172306) (xy -48.583220 96.907979) (xy -48.543777 96.647308) (xy -48.462045 96.396184) (xy -48.340642 96.160499)
     (xy -48.182187 95.946142) (xy -47.989301 95.759004) (xy -47.764600 95.604977) (xy -47.694941 95.567885) (xy -47.630315 95.535933) (xy -47.570432 95.508315) (xy -47.511228 95.484734) (xy -47.448637 95.464894)
     (xy -47.378593 95.448497) (xy -47.297030 95.435247) (xy -47.199883 95.424847) (xy -47.083086 95.417002) (xy -46.942572 95.411414) (xy -46.774278 95.407786) (xy -46.574135 95.405822) (xy -46.338080 95.405226)
     (xy -46.062046 95.405700) )(layer Eco1.User) (width  0.010000)
  )
  (fp_poly (pts (xy 45.844829 95.399412) (xy 46.109500 95.400774) (xy 46.363499 95.403168) (xy 46.601238 95.406597) (xy 46.817131 95.411063) (xy 47.005588 95.416568) (xy 47.161024 95.423116) (xy 47.277851 95.430710)
     (xy 47.350480 95.439351) (xy 47.355020 95.440256) (xy 47.600468 95.517158) (xy 47.834338 95.638217) (xy 48.048377 95.796901) (xy 48.234331 95.986674) (xy 48.383946 96.201003) (xy 48.432092 96.292826)
     (xy 48.510595 96.474094) (xy 48.561183 96.636672) (xy 48.588417 96.800935) (xy 48.596858 96.987256) (xy 48.596702 97.028000) (xy 48.570542 97.309130) (xy 48.497594 97.571012) (xy 48.377417 97.814670)
     (xy 48.209569 98.041129) (xy 48.119817 98.136264) (xy 47.914514 98.307200) (xy 47.682296 98.443716) (xy 47.435574 98.539055) (xy 47.332900 98.564716) (xy 47.265946 98.573112) (xy 47.153972 98.580493)
     (xy 47.002642 98.586862) (xy 46.817622 98.592222) (xy 46.604577 98.596574) (xy 46.369171 98.599920) (xy 46.117071 98.602264) (xy 45.853941 98.603607) (xy 45.585447 98.603952) (xy 45.317253 98.603301)
     (xy 45.055026 98.601656) (xy 44.804429 98.599020) (xy 44.571128 98.595395) (xy 44.360789 98.590783) (xy 44.179076 98.585187) (xy 44.031654 98.578608) (xy 43.924190 98.571050) (xy 43.865800 98.563302)
     (xy 43.619489 98.486099) (xy 43.384697 98.365951) (xy 43.169817 98.209438) (xy 42.983247 98.023139) (xy 42.833381 97.813634) (xy 42.779345 97.711840) (xy 42.677878 97.460261) (xy 42.620249 97.220382)
     (xy 42.604823 96.981260) (xy 42.629963 96.731954) (xy 42.631506 96.723200) (xy 42.703346 96.460387) (xy 42.819210 96.214741) (xy 42.974000 95.991664) (xy 43.162617 95.796561) (xy 43.379962 95.634835)
     (xy 43.620937 95.511890) (xy 43.840400 95.441947) (xy 43.904480 95.433139) (xy 44.013764 95.425336) (xy 44.162662 95.418540) (xy 44.345588 95.412755) (xy 44.556955 95.407983) (xy 44.791174 95.404227)
     (xy 45.042658 95.401489) (xy 45.305821 95.399772) (xy 45.575073 95.399079) (xy 45.844829 95.399412) )(layer Eco1.User) (width  0.010000)
  )
  (fp_poly (pts (xy -36.814013 70.046679) (xy -36.338092 70.134853) (xy -35.865891 70.270917) (xy -35.468712 70.425491) (xy -35.028290 70.645595) (xy -34.615425 70.906718) (xy -34.232338 71.205847) (xy -33.881245 71.539973)
     (xy -33.564366 71.906084) (xy -33.283919 72.301169) (xy -33.042123 72.722219) (xy -32.841195 73.166221) (xy -32.683355 73.630165) (xy -32.570821 74.111040) (xy -32.524124 74.421844) (xy -32.490343 74.915859)
     (xy -32.505179 75.402489) (xy -32.566669 75.879053) (xy -32.672850 76.342871) (xy -32.821758 76.791262) (xy -33.011429 77.221547) (xy -33.239899 77.631045) (xy -33.505205 78.017075) (xy -33.805384 78.376959)
     (xy -34.138470 78.708014) (xy -34.502501 79.007562) (xy -34.895513 79.272922) (xy -35.315543 79.501413) (xy -35.760626 79.690356) (xy -36.228799 79.837070) (xy -36.543876 79.908387) (xy -36.647049 79.925579)
     (xy -36.778732 79.943546) (xy -36.927715 79.961191) (xy -37.082788 79.977416) (xy -37.232742 79.991124) (xy -37.366367 80.001216) (xy -37.472452 80.006596) (xy -37.539789 80.006165) (xy -37.541200 80.006041)
     (xy -37.581065 80.002965) (xy -37.659456 79.997359) (xy -37.764211 79.990081) (xy -37.858700 79.983641) (xy -38.340715 79.926007) (xy -38.812164 79.820330) (xy -39.269739 79.668845) (xy -39.710132 79.473785)
     (xy -40.130035 79.237388) (xy -40.526140 78.961888) (xy -40.895140 78.649520) (xy -41.233726 78.302519) (xy -41.538590 77.923121) (xy -41.806426 77.513561) (xy -41.973474 77.203300) (xy -42.170660 76.746817)
     (xy -42.320007 76.276951) (xy -42.421535 75.797355) (xy -42.475264 75.311680) (xy -42.480528 74.879707) (xy -39.979600 74.879707) (xy -39.979600 75.133200) (xy -37.617400 75.133200) (xy -37.617400 77.495400)
     (xy -37.363400 77.495400) (xy -37.363400 75.133200) (xy -34.975800 75.133200) (xy -34.975800 74.879702) (xy -37.350700 74.866500) (xy -37.357302 73.679050) (xy -37.363903 72.491600) (xy -37.616898 72.491600)
     (xy -37.630100 74.866500) (xy -38.804850 74.873103) (xy -39.979600 74.879707) (xy -42.480528 74.879707) (xy -42.481212 74.823580) (xy -42.439400 74.336706) (xy -42.349848 73.854713) (xy -42.212574 73.381251)
     (xy -42.027598 72.919974) (xy -41.949644 72.758217) (xy -41.703334 72.323863) (xy -41.421034 71.923106) (xy -41.105799 71.557047) (xy -40.760683 71.226784) (xy -40.388741 70.933418) (xy -39.993027 70.678047)
     (xy -39.576597 70.461771) (xy -39.142504 70.285689) (xy -38.693803 70.150902) (xy -38.233549 70.058507) (xy -37.764796 70.009606) (xy -37.290600 70.005297) (xy -36.814013 70.046679) )(layer Eco1.User) (width  0.010000)
  )
  (fp_poly (pts (xy -12.165084 70.013706) (xy -11.686186 70.067760) (xy -11.207442 70.169848) (xy -10.909300 70.258805) (xy -10.442587 70.439538) (xy -10.003146 70.662819) (xy -9.589698 70.929452) (xy -9.200966 71.240237)
     (xy -8.923549 71.504130) (xy -8.768526 71.666137) (xy -8.640423 71.809576) (xy -8.527524 71.948863) (xy -8.418116 72.098414) (xy -8.306509 72.263477) (xy -8.056818 72.688059) (xy -7.852723 73.131118)
     (xy -7.694230 73.588923) (xy -7.581343 74.057742) (xy -7.514067 74.533841) (xy -7.492409 75.013488) (xy -7.516373 75.492952) (xy -7.585964 75.968498) (xy -7.701188 76.436396) (xy -7.862049 76.892912)
     (xy -8.068553 77.334314) (xy -8.298953 77.724000) (xy -8.595674 78.131465) (xy -8.926285 78.502825) (xy -9.287818 78.836608) (xy -9.677307 79.131342) (xy -10.091788 79.385554) (xy -10.528294 79.597773)
     (xy -10.983858 79.766525) (xy -11.455516 79.890339) (xy -11.940300 79.967742) (xy -12.435246 79.997263) (xy -12.852400 79.984290) (xy -13.346411 79.923881) (xy -13.824738 79.816587) (xy -14.284928 79.664568)
     (xy -14.724526 79.469987) (xy -15.141078 79.235005) (xy -15.532132 78.961784) (xy -15.895233 78.652484) (xy -16.227927 78.309267) (xy -16.527761 77.934296) (xy -16.792281 77.529730) (xy -17.019033 77.097733)
     (xy -17.205563 76.640464) (xy -17.349418 76.160087) (xy -17.388965 75.988147) (xy -17.413633 75.863513) (xy -17.432252 75.745867) (xy -17.445973 75.623074) (xy -17.455952 75.482996) (xy -17.463341 75.313496)
     (xy -17.467942 75.157279) (xy -17.469696 74.879200) (xy -14.986000 74.879200) (xy -14.986000 75.133200) (xy -12.623800 75.133200) (xy -12.623800 77.495400) (xy -12.344400 77.495400) (xy -12.344400 75.133200)
     (xy -9.982200 75.133200) (xy -9.982200 74.879200) (xy -12.343898 74.879200) (xy -12.357100 72.504300) (xy -12.490450 72.496622) (xy -12.623800 72.488945) (xy -12.623800 74.879200) (xy -14.986000 74.879200)
     (xy -17.469696 74.879200) (xy -17.470096 74.815903) (xy -17.456750 74.509899) (xy -17.426120 74.225724) (xy -17.376423 73.949839) (xy -17.305877 73.668702) (xy -17.245688 73.469500) (xy -17.072151 73.006892)
     (xy -16.857766 72.571543) (xy -16.605464 72.164938) (xy -16.318171 71.788559) (xy -15.998817 71.443891) (xy -15.650331 71.132418) (xy -15.275640 70.855623) (xy -14.877674 70.614990) (xy -14.459361 70.412004)
     (xy -14.023628 70.248148) (xy -13.573406 70.124907) (xy -13.111622 70.043763) (xy -12.641205 70.006202) (xy -12.165084 70.013706) )(layer Eco1.User) (width  0.010000)
  )
  (fp_poly (pts (xy 12.975040 70.022403) (xy 13.459294 70.092485) (xy 13.934855 70.210161) (xy 14.398300 70.374372) (xy 14.846205 70.584058) (xy 15.275146 70.838158) (xy 15.681699 71.135613) (xy 15.750841 71.192509)
     (xy 16.095812 71.513623) (xy 16.410830 71.872231) (xy 16.692378 72.262449) (xy 16.936941 72.678393) (xy 17.141002 73.114179) (xy 17.301048 73.563923) (xy 17.399710 73.952100) (xy 17.438365 74.151891)
     (xy 17.466402 74.332889) (xy 17.484887 74.508817) (xy 17.494886 74.693395) (xy 17.497466 74.900346) (xy 17.493691 75.143391) (xy 17.493341 75.157279) (xy 17.487149 75.357308) (xy 17.479246 75.518676)
     (xy 17.468478 75.653522) (xy 17.453692 75.773982) (xy 17.433733 75.892194) (xy 17.414364 75.988147) (xy 17.283429 76.486505) (xy 17.107548 76.961790) (xy 16.887414 77.412752) (xy 16.623721 77.838146)
     (xy 16.317163 78.236721) (xy 15.968432 78.607231) (xy 15.948784 78.626062) (xy 15.574502 78.948314) (xy 15.171528 79.230199) (xy 14.743751 79.470324) (xy 14.295063 79.667295) (xy 13.829353 79.819721)
     (xy 13.350512 79.926208) (xy 12.862429 79.985363) (xy 12.368996 79.995793) (xy 12.153900 79.984787) (xy 11.659641 79.923797) (xy 11.179767 79.815672) (xy 10.717059 79.662571) (xy 10.274300 79.466651)
     (xy 9.854275 79.230068) (xy 9.459765 78.954980) (xy 9.093555 78.643546) (xy 8.758427 78.297921) (xy 8.457164 77.920263) (xy 8.192550 77.512730) (xy 7.967368 77.077479) (xy 7.784400 76.616667)
     (xy 7.775771 76.591085) (xy 7.641875 76.112355) (xy 7.556421 75.625482) (xy 7.519110 75.134574) (xy 7.524592 74.879200) (xy 10.007600 74.879200) (xy 10.007600 75.133200) (xy 12.369800 75.133200)
     (xy 12.369800 77.495400) (xy 12.649200 77.495400) (xy 12.649200 75.133200) (xy 15.011400 75.133200) (xy 15.011400 74.879200) (xy 12.649200 74.879200) (xy 12.649200 72.488945) (xy 12.515850 72.496622)
     (xy 12.382500 72.504300) (xy 12.375898 73.691750) (xy 12.369297 74.879200) (xy 10.007600 74.879200) (xy 7.524592 74.879200) (xy 7.529647 74.643741) (xy 7.587735 74.157092) (xy 7.693077 73.678737)
     (xy 7.845376 73.212784) (xy 8.044337 72.763342) (xy 8.053347 72.745600) (xy 8.305068 72.306909) (xy 8.594736 71.900600) (xy 8.919730 71.528480) (xy 9.277430 71.192356) (xy 9.665214 70.894033)
     (xy 10.080461 70.635319) (xy 10.520551 70.418019) (xy 10.982862 70.243942) (xy 11.464774 70.114893) (xy 11.963665 70.032678) (xy 11.994148 70.029267) (xy 12.485517 70.000977) (xy 12.975040 70.022403) )(layer Eco1.User) (width  0.010000)
  )
  (fp_poly (pts (xy 37.772325 70.009685) (xy 38.271888 70.060301) (xy 38.531800 70.106563) (xy 39.006426 70.229301) (xy 39.465356 70.398921) (xy 39.905138 70.613004) (xy 40.322318 70.869131) (xy 40.713445 71.164881)
     (xy 41.075065 71.497834) (xy 41.403726 71.865572) (xy 41.695976 72.265673) (xy 41.763710 72.371703) (xy 41.995397 72.790749) (xy 42.186258 73.233505) (xy 42.334728 73.693593) (xy 42.439241 74.164634)
     (xy 42.498232 74.640250) (xy 42.510136 75.114062) (xy 42.497016 75.359856) (xy 42.430921 75.869479) (xy 42.317792 76.361720) (xy 42.158932 76.834368) (xy 41.955650 77.285213) (xy 41.709249 77.712043)
     (xy 41.421036 78.112647) (xy 41.092316 78.484817) (xy 40.724396 78.826339) (xy 40.318580 79.135004) (xy 40.233600 79.192194) (xy 39.827966 79.430039) (xy 39.393553 79.629172) (xy 38.936846 79.787443)
     (xy 38.464334 79.902703) (xy 37.982504 79.972802) (xy 37.843102 79.984298) (xy 37.710957 79.992983) (xy 37.596450 79.999874) (xy 37.509358 80.004430) (xy 37.459459 80.006112) (xy 37.452300 80.005887)
     (xy 37.417988 80.002919) (xy 37.344334 79.997434) (xy 37.242685 79.990256) (xy 37.141521 79.983355) (xy 36.663030 79.926043) (xy 36.190979 79.819974) (xy 35.729715 79.667150) (xy 35.283583 79.469570)
     (xy 34.856929 79.229236) (xy 34.454099 78.948147) (xy 34.079439 78.628304) (xy 33.972817 78.524727) (xy 33.639342 78.155741) (xy 33.347411 77.759776) (xy 33.097859 77.340239) (xy 32.891522 76.900538)
     (xy 32.729233 76.444080) (xy 32.611829 75.974274) (xy 32.540143 75.494527) (xy 32.515012 75.008246) (xy 32.520857 74.879702) (xy 35.001200 74.879702) (xy 35.001200 75.133200) (xy 37.388800 75.133200)
     (xy 37.388800 77.495400) (xy 37.642800 77.495400) (xy 37.642800 75.133200) (xy 40.005000 75.133200) (xy 40.005000 74.879707) (xy 38.830250 74.873103) (xy 37.655500 74.866500) (xy 37.648898 73.679050)
     (xy 37.642297 72.491600) (xy 37.389302 72.491600) (xy 37.376100 74.866500) (xy 35.001200 74.879702) (xy 32.520857 74.879702) (xy 32.537269 74.518840) (xy 32.607750 74.029716) (xy 32.727289 73.544283)
     (xy 32.741286 73.498295) (xy 32.856576 73.177529) (xy 33.006082 72.843032) (xy 33.182093 72.509761) (xy 33.376900 72.192670) (xy 33.518330 71.991014) (xy 33.614333 71.871837) (xy 33.739947 71.730417)
     (xy 33.885370 71.576560) (xy 34.040795 71.420070) (xy 34.196420 71.270751) (xy 34.342439 71.138408) (xy 34.469048 71.032845) (xy 34.500614 71.008730) (xy 34.922584 70.725770) (xy 35.364761 70.488423)
     (xy 35.824104 70.297368) (xy 36.297573 70.153286) (xy 36.782127 70.056858) (xy 37.274724 70.008764) (xy 37.772325 70.009685) )(layer Eco1.User) (width  0.010000)
  )
  (fp_poly (pts (xy -37.218271 45.016165) (xy -36.998975 45.028932) (xy -36.819241 45.047177) (xy -36.337475 45.135458) (xy -35.870498 45.270656) (xy -35.421313 45.450280) (xy -34.992924 45.671838) (xy -34.588335 45.932841)
     (xy -34.210551 46.230796) (xy -33.862575 46.563213) (xy -33.547412 46.927601) (xy -33.268066 47.321468) (xy -33.027541 47.742324) (xy -32.828840 48.187677) (xy -32.743420 48.426961) (xy -32.610062 48.913731)
     (xy -32.526057 49.406079) (xy -32.491185 49.900659) (xy -32.505223 50.394124) (xy -32.567950 50.883129) (xy -32.679145 51.364329) (xy -32.838586 51.834378) (xy -32.992058 52.182438) (xy -33.231672 52.617685)
     (xy -33.510690 53.023629) (xy -33.826034 53.398042) (xy -34.174627 53.738697) (xy -34.553392 54.043367) (xy -34.959253 54.309825) (xy -35.389131 54.535843) (xy -35.839950 54.719194) (xy -36.308633 54.857651)
     (xy -36.792101 54.948986) (xy -36.819241 54.952622) (xy -36.974720 54.968075) (xy -37.162631 54.979061) (xy -37.369077 54.985462) (xy -37.580166 54.987162) (xy -37.782003 54.984045) (xy -37.960693 54.975994)
     (xy -38.098924 54.963341) (xy -38.418656 54.911343) (xy -38.736847 54.836811) (xy -39.039800 54.746329) (xy -39.502924 54.569573) (xy -39.942860 54.349201) (xy -40.356867 54.087937) (xy -40.742206 53.788508)
     (xy -41.096135 53.453639) (xy -41.415916 53.086055) (xy -41.698807 52.688480) (xy -41.942069 52.263642) (xy -42.142961 51.814264) (xy -42.228815 51.574700) (xy -42.364521 51.083429) (xy -42.449687 50.588636)
     (xy -42.484313 50.091932) (xy -42.476894 49.860200) (xy -39.979600 49.860200) (xy -39.979600 50.139600) (xy -37.617400 50.139600) (xy -37.617400 52.501800) (xy -37.363400 52.501800) (xy -37.363400 50.140102)
     (xy -34.988500 50.126900) (xy -34.988500 49.872900) (xy -36.175950 49.866298) (xy -37.363400 49.859697) (xy -37.363400 47.498000) (xy -37.617400 47.498000) (xy -37.617400 49.860200) (xy -39.979600 49.860200)
     (xy -42.476894 49.860200) (xy -42.468400 49.594930) (xy -42.401946 49.099242) (xy -42.284952 48.606479) (xy -42.228815 48.425100) (xy -42.053645 47.972790) (xy -41.832517 47.536550) (xy -41.569157 47.121853)
     (xy -41.267292 46.734177) (xy -40.930647 46.378998) (xy -40.690800 46.164692) (xy -40.294717 45.866994) (xy -39.869993 45.609756) (xy -39.421094 45.394905) (xy -38.952485 45.224370) (xy -38.468629 45.100078)
     (xy -38.075267 45.035444) (xy -37.896197 45.019772) (xy -37.682958 45.011435) (xy -37.451624 45.010283) (xy -37.218271 45.016165) )(layer Eco1.User) (width  0.010000)
  )
  (fp_poly (pts (xy -12.217019 45.014908) (xy -12.044502 45.021820) (xy -11.920249 45.032577) (xy -11.424331 45.117005) (xy -10.943994 45.246671) (xy -10.484156 45.419940) (xy -10.049736 45.635173) (xy -9.967089 45.682668)
     (xy -9.553315 45.954737) (xy -9.169857 46.264750) (xy -8.819353 46.609190) (xy -8.504441 46.984535) (xy -8.227758 47.387266) (xy -7.991940 47.813864) (xy -7.799626 48.260809) (xy -7.653453 48.724583)
     (xy -7.636151 48.793400) (xy -7.541238 49.287514) (xy -7.495830 49.781024) (xy -7.498728 50.270849) (xy -7.548733 50.753909) (xy -7.644644 51.227122) (xy -7.785261 51.687410) (xy -7.969386 52.131690)
     (xy -8.195819 52.556884) (xy -8.463359 52.959910) (xy -8.770807 53.337687) (xy -9.116963 53.687137) (xy -9.500628 54.005177) (xy -9.728850 54.166700) (xy -10.152558 54.419202) (xy -10.601200 54.628078)
     (xy -11.072013 54.792285) (xy -11.562229 54.910779) (xy -11.811021 54.952170) (xy -12.011862 54.973025) (xy -12.246635 54.984932) (xy -12.499287 54.988014) (xy -12.753768 54.982395) (xy -12.994025 54.968199)
     (xy -13.204006 54.945549) (xy -13.233400 54.941199) (xy -13.730264 54.839653) (xy -14.207486 54.692097) (xy -14.663053 54.499300) (xy -15.094949 54.262031) (xy -15.214600 54.185597) (xy -15.627410 53.883741)
     (xy -16.002823 53.548484) (xy -16.339441 53.182025) (xy -16.635866 52.786565) (xy -16.890702 52.364305) (xy -17.102549 51.917443) (xy -17.270010 51.448181) (xy -17.391688 50.958719) (xy -17.438021 50.685700)
     (xy -17.455884 50.515684) (xy -17.467445 50.310100) (xy -17.472716 50.083782) (xy -17.471748 49.860200) (xy -14.986000 49.860200) (xy -14.986000 50.139600) (xy -12.623800 50.139600) (xy -12.623800 52.501800)
     (xy -12.344400 52.501800) (xy -12.344400 50.139600) (xy -9.982200 50.139600) (xy -9.982200 49.860200) (xy -12.344400 49.860200) (xy -12.344400 47.498000) (xy -12.623800 47.498000) (xy -12.623800 49.860200)
     (xy -14.986000 49.860200) (xy -17.471748 49.860200) (xy -17.471710 49.851568) (xy -17.464441 49.628294) (xy -17.450922 49.428796) (xy -17.436785 49.304370) (xy -17.342442 48.816039) (xy -17.201272 48.342007)
     (xy -17.015315 47.885965) (xy -16.786612 47.451602) (xy -16.517203 47.042609) (xy -16.209128 46.662676) (xy -15.864428 46.315493) (xy -15.709900 46.180895) (xy -15.307260 45.875713) (xy -14.885347 45.616195)
     (xy -14.441397 45.401054) (xy -13.972647 45.229002) (xy -13.476333 45.098749) (xy -13.322300 45.067754) (xy -13.192092 45.049282) (xy -13.023653 45.034259) (xy -12.829454 45.022997) (xy -12.621967 45.015810)
     (xy -12.413665 45.013009) (xy -12.217019 45.014908) )(layer Eco1.User) (width  0.010000)
  )
  (fp_poly (pts (xy 12.795381 45.021893) (xy 12.987874 45.028383) (xy 13.152462 45.039213) (xy 13.278130 45.054475) (xy 13.284200 45.055535) (xy 13.794345 45.169037) (xy 14.273562 45.322203) (xy 14.723980 45.516123)
     (xy 15.147725 45.751887) (xy 15.546924 46.030583) (xy 15.923706 46.353303) (xy 16.041620 46.467779) (xy 16.384438 46.845321) (xy 16.683270 47.247899) (xy 16.937471 47.674228) (xy 17.146400 48.123022)
     (xy 17.309412 48.592997) (xy 17.425863 49.082868) (xy 17.462184 49.304370) (xy 17.480836 49.481573) (xy 17.492854 49.693905) (xy 17.498236 49.926153) (xy 17.496982 50.163104) (xy 17.489093 50.389546)
     (xy 17.474567 50.590265) (xy 17.462231 50.695095) (xy 17.367740 51.182953) (xy 17.226026 51.656700) (xy 17.039202 52.112759) (xy 16.809381 52.547553) (xy 16.538676 52.957505) (xy 16.229199 53.339036)
     (xy 15.883064 53.688570) (xy 15.513998 53.993877) (xy 15.092704 54.278894) (xy 14.655532 54.515830) (xy 14.200779 54.705386) (xy 13.726745 54.848260) (xy 13.231729 54.945155) (xy 13.188076 54.951370)
     (xy 13.003765 54.970359) (xy 12.786366 54.982347) (xy 12.551113 54.987342) (xy 12.313242 54.985355) (xy 12.087988 54.976395) (xy 11.890587 54.960473) (xy 11.811000 54.950477) (xy 11.319269 54.853951)
     (xy 10.845120 54.711022) (xy 10.391214 54.523843) (xy 9.960209 54.294570) (xy 9.554767 54.025357) (xy 9.177547 53.718358) (xy 8.831209 53.375730) (xy 8.518413 52.999625) (xy 8.241819 52.592200)
     (xy 8.004088 52.155608) (xy 7.816143 51.714400) (xy 7.677682 51.271543) (xy 7.582538 50.809272) (xy 7.530711 50.334713) (xy 7.522295 49.860200) (xy 10.007600 49.860200) (xy 10.007600 50.139600)
     (xy 12.369800 50.139600) (xy 12.369800 52.501800) (xy 12.649200 52.501800) (xy 12.649200 50.139600) (xy 15.011400 50.139600) (xy 15.011400 49.860200) (xy 12.649200 49.860200) (xy 12.649200 47.498000)
     (xy 12.369800 47.498000) (xy 12.369800 49.860200) (xy 10.007600 49.860200) (xy 7.522295 49.860200) (xy 7.522202 49.854993) (xy 7.557011 49.377237) (xy 7.635140 48.908573) (xy 7.756590 48.456126)
     (xy 7.815774 48.285400) (xy 8.013903 47.821437) (xy 8.253435 47.385233) (xy 8.532001 46.978762) (xy 8.847235 46.604001) (xy 9.196766 46.262925) (xy 9.578227 45.957510) (xy 9.989251 45.689730)
     (xy 10.427468 45.461563) (xy 10.890510 45.274984) (xy 11.376009 45.131968) (xy 11.671300 45.068956) (xy 11.799893 45.051332) (xy 11.966675 45.037498) (xy 12.160631 45.027545) (xy 12.370744 45.021566)
     (xy 12.585999 45.019651) (xy 12.795381 45.021893) )(layer Eco1.User) (width  0.010000)
  )
  (fp_poly (pts (xy 38.188824 45.047579) (xy 38.506400 45.100230) (xy 38.983955 45.220936) (xy 39.444947 45.388507) (xy 39.886286 45.600828) (xy 40.304880 45.855784) (xy 40.697637 46.151259) (xy 41.061467 46.485138)
     (xy 41.393278 46.855304) (xy 41.689979 47.259642) (xy 41.713014 47.294800) (xy 41.946165 47.697050) (xy 42.141736 48.124968) (xy 42.297918 48.571496) (xy 42.412905 49.029579) (xy 42.484891 49.492159)
     (xy 42.512070 49.952181) (xy 42.496859 50.356647) (xy 42.458133 50.705175) (xy 42.403191 51.023396) (xy 42.328225 51.330268) (xy 42.250811 51.581731) (xy 42.068878 52.048211) (xy 41.842315 52.492358)
     (xy 41.573261 52.910609) (xy 41.263858 53.299399) (xy 41.135662 53.439184) (xy 40.766789 53.790102) (xy 40.370535 54.098544) (xy 39.948748 54.363579) (xy 39.503278 54.584279) (xy 39.035974 54.759715)
     (xy 38.548684 54.888957) (xy 38.100666 54.964257) (xy 38.008670 54.972294) (xy 37.881909 54.978741) (xy 37.731881 54.983488) (xy 37.570084 54.986425) (xy 37.408014 54.987441) (xy 37.257171 54.986426)
     (xy 37.129051 54.983269) (xy 37.035153 54.977859) (xy 37.007800 54.974760) (xy 36.951652 54.966638) (xy 36.863513 54.954015) (xy 36.761691 54.939513) (xy 36.753800 54.938392) (xy 36.334452 54.856861)
     (xy 35.908997 54.731973) (xy 35.489745 54.567718) (xy 35.235676 54.446502) (xy 34.939676 54.284251) (xy 34.672464 54.113639) (xy 34.419977 53.924424) (xy 34.168150 53.706362) (xy 34.001659 53.547745)
     (xy 33.686548 53.211090) (xy 33.413888 52.859754) (xy 33.175430 52.482294) (xy 33.017609 52.182438) (xy 32.822284 51.725746) (xy 32.675152 51.258339) (xy 32.575624 50.783632) (xy 32.523117 50.305041)
     (xy 32.517637 49.872900) (xy 35.013900 49.872900) (xy 35.013900 50.126900) (xy 37.388800 50.140102) (xy 37.388800 52.501800) (xy 37.642800 52.501800) (xy 37.642800 50.139600) (xy 40.005000 50.139600)
     (xy 40.005000 49.860200) (xy 37.642800 49.860200) (xy 37.642800 47.498000) (xy 37.388800 47.498000) (xy 37.388800 49.859697) (xy 36.201350 49.866298) (xy 35.013900 49.872900) (xy 32.517637 49.872900)
     (xy 32.517041 49.825982) (xy 32.556812 49.349870) (xy 32.641842 48.880121) (xy 32.771546 48.420150) (xy 32.945335 47.973374) (xy 33.162625 47.543208) (xy 33.422828 47.133067) (xy 33.725357 46.746368)
     (xy 34.001659 46.452054) (xy 34.244907 46.223508) (xy 34.477449 46.028916) (xy 34.713632 45.858041) (xy 34.967806 45.700648) (xy 35.254323 45.546499) (xy 35.311063 45.517996) (xy 35.760985 45.322160)
     (xy 36.228793 45.172512) (xy 36.709985 45.069641) (xy 37.200056 45.014136) (xy 37.694504 45.006586) (xy 38.188824 45.047579) )(layer Eco1.User) (width  0.010000)
  )
  (fp_poly (pts (xy -37.173624 20.013009) (xy -36.701082 20.065344) (xy -36.238093 20.161822) (xy -35.787666 20.301172) (xy -35.352808 20.482122) (xy -34.936531 20.703401) (xy -34.541842 20.963737) (xy -34.171751 21.261857)
     (xy -33.829267 21.596492) (xy -33.517400 21.966368) (xy -33.239158 22.370214) (xy -32.997550 22.806758) (xy -32.971773 22.860000) (xy -32.780902 23.317765) (xy -32.638176 23.787206) (xy -32.543244 24.264866)
     (xy -32.495756 24.747290) (xy -32.495363 25.231020) (xy -32.541714 25.712601) (xy -32.634460 26.188576) (xy -32.773251 26.655489) (xy -32.957736 27.109883) (xy -33.187568 27.548302) (xy -33.462394 27.967290)
     (xy -33.492931 28.008785) (xy -33.589852 28.129092) (xy -33.716466 28.271550) (xy -33.862971 28.426366) (xy -34.019561 28.583746) (xy -34.176431 28.733896) (xy -34.323778 28.867023) (xy -34.451795 28.973333)
     (xy -34.480461 28.995192) (xy -34.898272 29.275317) (xy -35.340728 29.512671) (xy -35.803165 29.705234) (xy -36.280917 29.850985) (xy -36.626800 29.924933) (xy -36.815739 29.951249) (xy -37.037781 29.970822)
     (xy -37.278598 29.983314) (xy -37.523859 29.988386) (xy -37.759235 29.985696) (xy -37.970397 29.974906) (xy -38.112700 29.960153) (xy -38.519276 29.890743) (xy -38.894595 29.797318) (xy -39.254178 29.675684)
     (xy -39.431679 29.603508) (xy -39.891242 29.379841) (xy -40.319443 29.116731) (xy -40.714859 28.815516) (xy -41.076065 28.477530) (xy -41.401641 28.104111) (xy -41.690161 27.696593) (xy -41.940205 27.256312)
     (xy -41.947654 27.241500) (xy -42.127003 26.848564) (xy -42.266468 26.461470) (xy -42.369804 26.066722) (xy -42.440764 25.650826) (xy -42.471706 25.357973) (xy -42.486202 24.878706) (xy -42.450228 24.396835)
     (xy -42.363726 23.911906) (xy -42.226638 23.423464) (xy -42.225091 23.418800) (xy -42.045230 22.956389) (xy -41.821815 22.517408) (xy -41.813489 22.504400) (xy -37.617400 22.504400) (xy -37.617400 27.508200)
     (xy -37.363400 27.508200) (xy -37.363400 22.504400) (xy -37.617400 22.504400) (xy -41.813489 22.504400) (xy -41.557569 22.104597) (xy -41.255213 21.720698) (xy -40.917471 21.368453) (xy -40.547064 21.050604)
     (xy -40.146714 20.769892) (xy -39.719145 20.529059) (xy -39.267078 20.330846) (xy -39.099127 20.270542) (xy -38.618468 20.133585) (xy -38.135326 20.045858) (xy -37.652708 20.006090) (xy -37.173624 20.013009) )(layer Eco1.User) (width  0.010000)
  )
  (fp_poly (pts (xy -11.965949 20.031195) (xy -11.489466 20.102642) (xy -11.020630 20.220376) (xy -10.563363 20.384803) (xy -10.256635 20.525696) (xy -9.821390 20.771871) (xy -9.419473 21.054339) (xy -9.052078 21.370057)
     (xy -8.720396 21.715986) (xy -8.425621 22.089085) (xy -8.168944 22.486313) (xy -7.951559 22.904629) (xy -7.774658 23.340993) (xy -7.639433 23.792363) (xy -7.547078 24.255700) (xy -7.498784 24.727962)
     (xy -7.495744 25.206109) (xy -7.539152 25.687100) (xy -7.630198 26.167895) (xy -7.770077 26.645452) (xy -7.811437 26.760293) (xy -7.955993 27.102684) (xy -8.132285 27.446650) (xy -8.330971 27.775643)
     (xy -8.542708 28.073117) (xy -8.577687 28.117322) (xy -8.678779 28.235536) (xy -8.806839 28.374162) (xy -8.949822 28.521070) (xy -9.095685 28.664135) (xy -9.232383 28.791228) (xy -9.334500 28.879384)
     (xy -9.723607 29.165522) (xy -10.141064 29.411834) (xy -10.582010 29.616936) (xy -11.041583 29.779442) (xy -11.514922 29.897966) (xy -11.997164 29.971123) (xy -12.483449 29.997526) (xy -12.968914 29.975790)
     (xy -13.121351 29.958692) (xy -13.608625 29.870948) (xy -14.080106 29.736565) (xy -14.532947 29.557908) (xy -14.964302 29.337344) (xy -15.371322 29.077240) (xy -15.751163 28.779961) (xy -16.100978 28.447875)
     (xy -16.417919 28.083347) (xy -16.699140 27.688744) (xy -16.941795 27.266432) (xy -17.143036 26.818779) (xy -17.245518 26.530300) (xy -17.331193 26.238226) (xy -17.394802 25.960272) (xy -17.438122 25.682944)
     (xy -17.462931 25.392748) (xy -17.471008 25.076191) (xy -17.468258 24.866600) (xy -14.986000 24.866600) (xy -14.986000 25.120600) (xy -12.623800 25.120600) (xy -12.623800 27.510854) (xy -12.357100 27.495500)
     (xy -12.343898 25.120600) (xy -9.982200 25.120600) (xy -9.982200 24.866600) (xy -12.344400 24.866600) (xy -12.344400 22.504400) (xy -12.623800 22.504400) (xy -12.623800 24.866600) (xy -14.986000 24.866600)
     (xy -17.468258 24.866600) (xy -17.467942 24.842520) (xy -17.461750 24.642491) (xy -17.453847 24.481123) (xy -17.443079 24.346277) (xy -17.428293 24.225817) (xy -17.408334 24.107605) (xy -17.388965 24.011652)
     (xy -17.258191 23.514593) (xy -17.082275 23.039676) (xy -16.862407 22.588829) (xy -16.599774 22.163984) (xy -16.295564 21.767071) (xy -15.950966 21.400020) (xy -15.582900 21.077254) (xy -15.186308 20.793014)
     (xy -14.766013 20.551815) (xy -14.325934 20.354062) (xy -13.869991 20.200161) (xy -13.402102 20.090519) (xy -12.926186 20.025539) (xy -12.446162 20.005630) (xy -11.965949 20.031195) )(layer Eco1.User) (width  0.010000)
  )
  (fp_poly (pts (xy 25.417679 21.529815) (xy 25.794997 21.591278) (xy 26.159556 21.696527) (xy 26.521204 21.847911) (xy 26.602507 21.888228) (xy 26.960404 22.097551) (xy 27.283284 22.340827) (xy 27.570321 22.614435)
     (xy 27.820689 22.914754) (xy 28.033560 23.238165) (xy 28.208108 23.581048) (xy 28.343507 23.939781) (xy 28.438929 24.310746) (xy 28.493548 24.690321) (xy 28.506538 25.074886) (xy 28.477072 25.460822)
     (xy 28.404322 25.844508) (xy 28.287463 26.222323) (xy 28.125668 26.590647) (xy 27.918111 26.945861) (xy 27.796621 27.117809) (xy 27.679211 27.259964) (xy 27.531949 27.416680) (xy 27.367963 27.575436)
     (xy 27.200380 27.723713) (xy 27.042330 27.848993) (xy 26.992830 27.884309) (xy 26.824443 27.989929) (xy 26.626564 28.097438) (xy 26.416064 28.198773) (xy 26.209810 28.285874) (xy 26.024671 28.350677)
     (xy 26.004798 28.356536) (xy 25.656375 28.436121) (xy 25.287608 28.482703) (xy 24.916571 28.494879) (xy 24.561336 28.471244) (xy 24.549100 28.469711) (xy 24.439993 28.452077) (xy 24.306246 28.425119)
     (xy 24.171962 28.393810) (xy 24.134518 28.384139) (xy 23.733638 28.252503) (xy 23.358719 28.079145) (xy 23.011996 27.867114) (xy 22.695700 27.619462) (xy 22.412062 27.339235) (xy 22.163316 27.029485)
     (xy 21.951692 26.693260) (xy 21.779424 26.333610) (xy 21.648742 25.953584) (xy 21.561880 25.556232) (xy 21.521069 25.144602) (xy 21.522388 24.866600) (xy 22.504400 24.866600) (xy 22.504400 25.120097)
     (xy 23.691850 25.126698) (xy 24.879300 25.133300) (xy 24.892502 27.508200) (xy 25.146000 27.508200) (xy 25.146000 25.120600) (xy 27.508200 25.120600) (xy 27.508200 24.866600) (xy 25.146000 24.866600)
     (xy 25.146000 22.504400) (xy 24.892000 22.504400) (xy 24.892000 24.866600) (xy 22.504400 24.866600) (xy 21.522388 24.866600) (xy 21.522630 24.815800) (xy 21.568273 24.397436) (xy 21.662007 23.994272)
     (xy 21.802800 23.608558) (xy 21.989620 23.242543) (xy 22.221437 22.898477) (xy 22.497219 22.578607) (xy 22.591265 22.484917) (xy 22.915819 22.205653) (xy 23.259820 21.973317) (xy 23.623143 21.787960)
     (xy 24.005666 21.649631) (xy 24.407264 21.558380) (xy 24.827814 21.514256) (xy 25.017753 21.509784) (xy 25.417679 21.529815) )(layer Eco1.User) (width  0.010000)
  )
  (fp_poly (pts (xy 25.453370 -8.466703) (xy 25.855436 -8.396258) (xy 26.240754 -8.278510) (xy 26.612180 -8.112589) (xy 26.966409 -7.901768) (xy 27.296075 -7.650465) (xy 27.591095 -7.363912) (xy 27.849185 -7.046017)
     (xy 28.068059 -6.700688) (xy 28.245434 -6.331834) (xy 28.379023 -5.943363) (xy 28.466543 -5.539184) (xy 28.496508 -5.284403) (xy 28.505750 -4.861570) (xy 28.465677 -4.447731) (xy 28.377408 -4.045787)
     (xy 28.242059 -3.658640) (xy 28.060749 -3.289191) (xy 27.834597 -2.940342) (xy 27.564721 -2.614995) (xy 27.406120 -2.454775) (xy 27.087447 -2.185984) (xy 26.741133 -1.959807) (xy 26.367239 -1.776276)
     (xy 25.965826 -1.635423) (xy 25.717500 -1.572655) (xy 25.568674 -1.547592) (xy 25.385370 -1.528168) (xy 25.183359 -1.515034) (xy 24.978407 -1.508842) (xy 24.786285 -1.510243) (xy 24.622760 -1.519888)
     (xy 24.574500 -1.525427) (xy 24.163345 -1.605731) (xy 23.768903 -1.731886) (xy 23.394726 -1.901349) (xy 23.044366 -2.111572) (xy 22.721372 -2.360012) (xy 22.429297 -2.644122) (xy 22.171693 -2.961359)
     (xy 21.952110 -3.309176) (xy 21.873276 -3.461301) (xy 21.747263 -3.743114) (xy 21.652971 -4.010752) (xy 21.587323 -4.278091) (xy 21.547238 -4.559011) (xy 21.529637 -4.867389) (xy 21.528226 -5.016500)
     (xy 21.529073 -5.130800) (xy 22.504400 -5.130800) (xy 22.504400 -4.877303) (xy 23.691850 -4.870702) (xy 24.879300 -4.864100) (xy 24.892502 -2.489200) (xy 25.146000 -2.489200) (xy 25.146000 -4.876800)
     (xy 27.508200 -4.876800) (xy 27.508200 -5.130800) (xy 25.146000 -5.130800) (xy 25.146000 -7.493000) (xy 24.892000 -7.493000) (xy 24.892000 -5.130800) (xy 22.504400 -5.130800) (xy 21.529073 -5.130800)
     (xy 21.529526 -5.191746) (xy 21.533152 -5.328877) (xy 21.540265 -5.440563) (xy 21.552026 -5.539476) (xy 21.569599 -5.638288) (xy 21.594143 -5.749668) (xy 21.596282 -5.758815) (xy 21.712928 -6.161532)
     (xy 21.867809 -6.533057) (xy 22.063815 -6.878686) (xy 22.303836 -7.203712) (xy 22.509144 -7.431673) (xy 22.819046 -7.717970) (xy 23.147812 -7.957851) (xy 23.498258 -8.153096) (xy 23.873196 -8.305488)
     (xy 23.907618 -8.316959) (xy 24.162126 -8.392524) (xy 24.399028 -8.444497) (xy 24.637521 -8.475845) (xy 24.896802 -8.489535) (xy 25.031700 -8.490713) (xy 25.453370 -8.466703) )(layer Eco1.User) (width  0.010000)
  )
  (fp_poly (pts (xy -24.783839 -27.880405) (xy -24.579941 -27.868870) (xy -24.399795 -27.850384) (xy -24.269700 -27.828046) (xy -23.854829 -27.709980) (xy -23.463960 -27.547359) (xy -23.098109 -27.340721) (xy -22.758290 -27.090605)
     (xy -22.577616 -26.929730) (xy -22.331348 -26.672467) (xy -22.121514 -26.401146) (xy -21.937529 -26.101325) (xy -21.856800 -25.946100) (xy -21.696755 -25.578090) (xy -21.584077 -25.213317) (xy -21.516837 -24.842739)
     (xy -21.493108 -24.457311) (xy -21.496924 -24.257000) (xy -21.539650 -23.830646) (xy -21.629516 -23.422938) (xy -21.766087 -23.034867) (xy -21.948930 -22.667421) (xy -22.177611 -22.321588) (xy -22.451696 -21.998358)
     (xy -22.516406 -21.932018) (xy -22.829504 -21.651529) (xy -23.164472 -21.415724) (xy -23.524268 -21.222976) (xy -23.911851 -21.071660) (xy -24.253709 -20.977071) (xy -24.395254 -20.952258) (xy -24.572264 -20.933098)
     (xy -24.770895 -20.919997) (xy -24.977304 -20.913357) (xy -25.177649 -20.913583) (xy -25.358087 -20.921079) (xy -25.504774 -20.936250) (xy -25.527000 -20.939911) (xy -25.943926 -21.035508) (xy -26.329652 -21.169625)
     (xy -26.688472 -21.344435) (xy -27.024681 -21.562114) (xy -27.342573 -21.824836) (xy -27.421473 -21.899545) (xy -27.711511 -22.214672) (xy -27.955544 -22.551273) (xy -28.153308 -22.908719) (xy -28.304539 -23.286381)
     (xy -28.408970 -23.683629) (xy -28.466337 -24.099835) (xy -28.478352 -24.409400) (xy -28.473403 -24.536400) (xy -27.482800 -24.536400) (xy -27.482800 -24.257000) (xy -25.120600 -24.257000) (xy -25.120600 -21.894800)
     (xy -24.866600 -21.894800) (xy -24.866600 -24.256498) (xy -22.491700 -24.269700) (xy -22.476346 -24.536400) (xy -24.866600 -24.536400) (xy -24.866600 -26.898600) (xy -25.120600 -26.898600) (xy -25.120600 -24.536400)
     (xy -27.482800 -24.536400) (xy -28.473403 -24.536400) (xy -28.465466 -24.740053) (xy -28.425187 -25.045276) (xy -28.354511 -25.344199) (xy -28.308349 -25.492744) (xy -28.152502 -25.882908) (xy -27.955070 -26.246625)
     (xy -27.719112 -26.581273) (xy -27.447686 -26.884230) (xy -27.143848 -27.152875) (xy -26.810657 -27.384588) (xy -26.451170 -27.576747) (xy -26.068445 -27.726731) (xy -25.665539 -27.831919) (xy -25.556447 -27.851841)
     (xy -25.397795 -27.870707) (xy -25.206793 -27.881583) (xy -24.997465 -27.884729) (xy -24.783839 -27.880405) )(layer Eco1.User) (width  0.010000)
  )
  (fp_poly (pts (xy 25.277263 -38.484994) (xy 25.506857 -38.465020) (xy 25.627606 -38.446768) (xy 26.033612 -38.347090) (xy 26.425773 -38.199278) (xy 26.799716 -38.005104) (xy 26.950313 -37.910137) (xy 27.281108 -37.661259)
     (xy 27.572743 -37.383509) (xy 27.825078 -37.080538) (xy 28.037975 -36.756000) (xy 28.211296 -36.413548) (xy 28.344902 -36.056835) (xy 28.438654 -35.689513) (xy 28.492413 -35.315236) (xy 28.506042 -34.937656)
     (xy 28.479400 -34.560426) (xy 28.412350 -34.187199) (xy 28.304753 -33.821627) (xy 28.156471 -33.467365) (xy 27.967364 -33.128064) (xy 27.737294 -32.807378) (xy 27.466123 -32.508959) (xy 27.165300 -32.245485)
     (xy 26.822843 -32.009070) (xy 26.457708 -31.816166) (xy 26.074458 -31.668016) (xy 25.677657 -31.565863) (xy 25.271866 -31.510950) (xy 24.861648 -31.504518) (xy 24.549100 -31.532907) (xy 24.137747 -31.614390)
     (xy 23.744743 -31.741449) (xy 23.373219 -31.911489) (xy 23.026308 -32.121919) (xy 22.707141 -32.370144) (xy 22.418851 -32.653572) (xy 22.164570 -32.969609) (xy 21.947431 -33.315661) (xy 21.770565 -33.689137)
     (xy 21.694560 -33.896300) (xy 21.634245 -34.088600) (xy 21.589833 -34.259146) (xy 21.559175 -34.422384) (xy 21.540120 -34.592759) (xy 21.530519 -34.784714) (xy 21.528223 -35.012694) (xy 21.528226 -35.013900)
     (xy 21.529069 -35.127698) (xy 22.504400 -35.127698) (xy 22.504400 -34.874703) (xy 23.691850 -34.868102) (xy 24.879300 -34.861500) (xy 24.885903 -33.686750) (xy 24.892507 -32.512000) (xy 25.146000 -32.512000)
     (xy 25.146000 -34.874200) (xy 27.508200 -34.874200) (xy 27.508200 -35.128200) (xy 25.146000 -35.128200) (xy 25.146000 -37.490400) (xy 24.892507 -37.490400) (xy 24.885903 -36.315650) (xy 24.879300 -35.140900)
     (xy 22.504400 -35.127698) (xy 21.529069 -35.127698) (xy 21.529524 -35.189095) (xy 21.533145 -35.326182) (xy 21.540252 -35.437840) (xy 21.552009 -35.536746) (xy 21.569580 -35.635581) (xy 21.594128 -35.747023)
     (xy 21.596410 -35.756783) (xy 21.718285 -36.170311) (xy 21.882758 -36.557758) (xy 22.087604 -36.916957) (xy 22.330602 -37.245739) (xy 22.609529 -37.541936) (xy 22.922160 -37.803380) (xy 23.266274 -38.027901)
     (xy 23.639647 -38.213332) (xy 24.040056 -38.357505) (xy 24.341114 -38.433967) (xy 24.543821 -38.466024) (xy 24.778747 -38.485327) (xy 25.028894 -38.491706) (xy 25.277263 -38.484994) )(layer Eco1.User) (width  0.010000)
  )
  (fp_poly (pts (xy -24.669364 -68.483115) (xy -24.248999 -68.417541) (xy -23.848112 -68.306370) (xy -23.469298 -68.151918) (xy -23.115154 -67.956501) (xy -22.788276 -67.722436) (xy -22.491261 -67.452038) (xy -22.226705 -67.147623)
     (xy -21.997203 -66.811509) (xy -21.805353 -66.446010) (xy -21.653751 -66.053443) (xy -21.560587 -65.709800) (xy -21.537972 -65.600214) (xy -21.521895 -65.499503) (xy -21.511355 -65.395121) (xy -21.505348 -65.274523)
     (xy -21.502873 -65.125161) (xy -21.502733 -64.985900) (xy -21.504072 -64.810583) (xy -21.507735 -64.673374) (xy -21.514885 -64.561598) (xy -21.526685 -64.462576) (xy -21.544301 -64.363631) (xy -21.568895 -64.252087)
     (xy -21.570883 -64.243586) (xy -21.692091 -63.832931) (xy -21.856026 -63.447172) (xy -22.060180 -63.088755) (xy -22.302047 -62.760130) (xy -22.579118 -62.463745) (xy -22.888886 -62.202048) (xy -23.228844 -61.977489)
     (xy -23.596484 -61.792514) (xy -23.989300 -61.649574) (xy -24.309673 -61.569219) (xy -24.440925 -61.547553) (xy -24.599903 -61.529061) (xy -24.772350 -61.514638) (xy -24.944010 -61.505179) (xy -25.100628 -61.501579)
     (xy -25.227945 -61.504733) (xy -25.273000 -61.508729) (xy -25.527526 -61.546014) (xy -25.771217 -61.593813) (xy -25.987313 -61.648669) (xy -26.058932 -61.670721) (xy -26.449199 -61.823912) (xy -26.811986 -62.017741)
     (xy -27.145120 -62.248952) (xy -27.446427 -62.514289) (xy -27.713734 -62.810495) (xy -27.944866 -63.134314) (xy -28.137650 -63.482490) (xy -28.289911 -63.851765) (xy -28.399475 -64.238884) (xy -28.464169 -64.640590)
     (xy -28.481820 -65.053626) (xy -28.478358 -65.125600) (xy -27.482800 -65.125600) (xy -27.482800 -64.871600) (xy -25.120600 -64.871600) (xy -25.120600 -62.509400) (xy -24.867108 -62.509400) (xy -24.853900 -64.858900)
     (xy -23.666450 -64.865502) (xy -22.479000 -64.872103) (xy -22.479000 -65.125098) (xy -24.853900 -65.138300) (xy -24.867108 -67.487800) (xy -25.120600 -67.487800) (xy -25.120600 -65.125600) (xy -27.482800 -65.125600)
     (xy -28.478358 -65.125600) (xy -28.470760 -65.283533) (xy -28.413767 -65.690349) (xy -28.311467 -66.079993) (xy -28.166908 -66.449898) (xy -27.983141 -66.797500) (xy -27.763213 -67.120230) (xy -27.510175 -67.415523)
     (xy -27.227075 -67.680812) (xy -26.916961 -67.913532) (xy -26.582885 -68.111115) (xy -26.227893 -68.270995) (xy -25.855036 -68.390606) (xy -25.467363 -68.467382) (xy -25.067922 -68.498756) (xy -24.669364 -68.483115) )(layer Eco1.User) (width  0.010000)
  )
  (fp_poly (pts (xy 25.256684 -68.484069) (xy 25.491494 -68.464498) (xy 25.695411 -68.432032) (xy 25.696885 -68.431718) (xy 26.017599 -68.348611) (xy 26.329643 -68.239740) (xy 26.619009 -68.110610) (xy 26.858447 -67.975270)
     (xy 27.205102 -67.724544) (xy 27.515060 -67.440989) (xy 27.786472 -67.127643) (xy 28.017492 -66.787543) (xy 28.206270 -66.423727) (xy 28.350958 -66.039232) (xy 28.449709 -65.637096) (xy 28.496159 -65.283533)
     (xy 28.505659 -64.858909) (xy 28.465864 -64.444320) (xy 28.377733 -64.042370) (xy 28.242223 -63.655664) (xy 28.060295 -63.286803) (xy 27.832905 -62.938394) (xy 27.561014 -62.613038) (xy 27.483582 -62.532976)
     (xy 27.165911 -62.248070) (xy 26.826295 -62.008954) (xy 26.465208 -61.815835) (xy 26.083124 -61.668919) (xy 25.680518 -61.568411) (xy 25.257864 -61.514518) (xy 25.120600 -61.507228) (xy 24.980243 -61.504784)
     (xy 24.836321 -61.506613) (xy 24.709255 -61.512259) (xy 24.644733 -61.517834) (xy 24.229859 -61.590209) (xy 23.832082 -61.708717) (xy 23.454634 -61.870892) (xy 23.100748 -62.074267) (xy 22.773655 -62.316374)
     (xy 22.476588 -62.594745) (xy 22.212777 -62.906914) (xy 21.985455 -63.250412) (xy 21.797855 -63.622773) (xy 21.756429 -63.722886) (xy 21.709395 -63.853190) (xy 21.659999 -64.008911) (xy 21.615747 -64.165635)
     (xy 21.596282 -64.243586) (xy 21.571172 -64.356409) (xy 21.553120 -64.455720) (xy 21.540966 -64.554189) (xy 21.533547 -64.664488) (xy 21.529702 -64.799287) (xy 21.528268 -64.971258) (xy 21.528226 -64.985900)
     (xy 21.528999 -65.125098) (xy 22.504400 -65.125098) (xy 22.504400 -64.872103) (xy 23.691850 -64.865502) (xy 24.879300 -64.858900) (xy 24.885903 -63.684150) (xy 24.892507 -62.509400) (xy 25.146000 -62.509400)
     (xy 25.146000 -64.871600) (xy 27.508200 -64.871600) (xy 27.508200 -65.125600) (xy 25.146000 -65.125600) (xy 25.146000 -67.487800) (xy 24.892507 -67.487800) (xy 24.885903 -66.313050) (xy 24.879300 -65.138300)
     (xy 22.504400 -65.125098) (xy 21.528999 -65.125098) (xy 21.529327 -65.184022) (xy 21.534280 -65.342284) (xy 21.543805 -65.471530) (xy 21.558620 -65.582605) (xy 21.572623 -65.655819) (xy 21.688045 -66.080452)
     (xy 21.845391 -66.477730) (xy 22.042801 -66.845778) (xy 22.278411 -67.182719) (xy 22.550361 -67.486677) (xy 22.856788 -67.755776) (xy 23.195830 -67.988139) (xy 23.565625 -68.181890) (xy 23.964312 -68.335153)
     (xy 24.328557 -68.433077) (xy 24.526920 -68.465248) (xy 24.758396 -68.484460) (xy 25.006985 -68.490728) (xy 25.256684 -68.484069) )(layer Eco1.User) (width  0.010000)
  )
  (fp_poly (pts (xy -45.258790 -98.590073) (xy -44.971399 -98.589910) (xy -44.726848 -98.589491) (xy -44.521155 -98.588696) (xy -44.350341 -98.587406) (xy -44.210424 -98.585499) (xy -44.097425 -98.582857) (xy -44.007363 -98.579358)
     (xy -43.936259 -98.574884) (xy -43.880130 -98.569312) (xy -43.834997 -98.562524) (xy -43.796880 -98.554400) (xy -43.761798 -98.544819) (xy -43.726100 -98.533765) (xy -43.472611 -98.428077) (xy -43.240818 -98.281229)
     (xy -43.036150 -98.099006) (xy -42.864036 -97.887191) (xy -42.729903 -97.651567) (xy -42.639180 -97.397919) (xy -42.631749 -97.367742) (xy -42.602733 -97.170790) (xy -42.598849 -96.951156) (xy -42.618979 -96.729566)
     (xy -42.662003 -96.526748) (xy -42.680219 -96.469774) (xy -42.796493 -96.213720) (xy -42.954288 -95.986328) (xy -43.152417 -95.788754) (xy -43.389695 -95.622150) (xy -43.664935 -95.487671) (xy -43.706408 -95.471482)
     (xy -43.736447 -95.460435) (xy -43.766596 -95.450942) (xy -43.800787 -95.442869) (xy -43.842952 -95.436083) (xy -43.897021 -95.430452) (xy -43.966928 -95.425844) (xy -44.056602 -95.422125) (xy -44.169976 -95.419163)
     (xy -44.310982 -95.416826) (xy -44.483551 -95.414982) (xy -44.691614 -95.413496) (xy -44.939103 -95.412238) (xy -45.229949 -95.411074) (xy -45.529500 -95.410006) (xy -45.863947 -95.408902) (xy -46.151623 -95.408160)
     (xy -46.396557 -95.407874) (xy -46.602777 -95.408136) (xy -46.774311 -95.409041) (xy -46.915189 -95.410682) (xy -47.029439 -95.413153) (xy -47.121089 -95.416547) (xy -47.194168 -95.420958) (xy -47.252705 -95.426479)
     (xy -47.300727 -95.433204) (xy -47.342264 -95.441227) (xy -47.381343 -95.450640) (xy -47.391277 -95.453242) (xy -47.652428 -95.547126) (xy -47.887005 -95.680551) (xy -48.092268 -95.848461) (xy -48.265478 -96.045802)
     (xy -48.403894 -96.267517) (xy -48.504775 -96.508551) (xy -48.565381 -96.763848) (xy -48.582973 -97.028352) (xy -48.554809 -97.297009) (xy -48.501130 -97.500815) (xy -48.431693 -97.682051) (xy -48.351482 -97.833608)
     (xy -48.248376 -97.975757) (xy -48.151809 -98.085104) (xy -47.966003 -98.258705) (xy -47.765907 -98.393208) (xy -47.535891 -98.498848) (xy -47.499122 -98.512378) (xy -47.282100 -98.590100) (xy -45.593000 -98.590100)
     (xy -45.258790 -98.590073) )(layer Eco1.User) (width  0.010000)
  )
  (fp_poly (pts (xy 45.906532 -98.605111) (xy 46.168463 -98.603423) (xy 46.418265 -98.600695) (xy 46.650218 -98.596925) (xy 46.858603 -98.592114) (xy 47.037699 -98.586262) (xy 47.181788 -98.579369) (xy 47.285148 -98.571434)
     (xy 47.332900 -98.564717) (xy 47.594326 -98.484735) (xy 47.836784 -98.360555) (xy 48.055257 -98.196827) (xy 48.244725 -97.998200) (xy 48.400171 -97.769324) (xy 48.516576 -97.514847) (xy 48.539197 -97.447100)
     (xy 48.574696 -97.286491) (xy 48.594002 -97.098538) (xy 48.596393 -96.904282) (xy 48.581148 -96.724768) (xy 48.566659 -96.647000) (xy 48.483458 -96.395103) (xy 48.357690 -96.159398) (xy 48.195250 -95.945757)
     (xy 48.002034 -95.760052) (xy 47.783939 -95.608156) (xy 47.546860 -95.495941) (xy 47.355020 -95.440257) (xy 47.289510 -95.432040) (xy 47.178908 -95.424799) (xy 47.028818 -95.418533) (xy 46.844843 -95.413241)
     (xy 46.632588 -95.408921) (xy 46.397656 -95.405570) (xy 46.145651 -95.403188) (xy 45.882176 -95.401772) (xy 45.612836 -95.401322) (xy 45.343233 -95.401834) (xy 45.078972 -95.403307) (xy 44.825656 -95.405740)
     (xy 44.588889 -95.409131) (xy 44.374275 -95.413478) (xy 44.187418 -95.418779) (xy 44.033920 -95.425033) (xy 43.919387 -95.432237) (xy 43.849420 -95.440390) (xy 43.844660 -95.441351) (xy 43.606412 -95.517693)
     (xy 43.377127 -95.638063) (xy 43.165315 -95.795693) (xy 42.979484 -95.983812) (xy 42.828142 -96.195651) (xy 42.776253 -96.291400) (xy 42.669710 -96.558687) (xy 42.613572 -96.825895) (xy 42.607842 -97.094507)
     (xy 42.652522 -97.366001) (xy 42.747617 -97.641860) (xy 42.779345 -97.711841) (xy 42.910891 -97.932007) (xy 43.082930 -98.130577) (xy 43.287567 -98.301425) (xy 43.516907 -98.438427) (xy 43.763057 -98.535456)
     (xy 43.878500 -98.564717) (xy 43.947128 -98.573442) (xy 44.060826 -98.581125) (xy 44.213874 -98.587768) (xy 44.400551 -98.593369) (xy 44.615139 -98.597929) (xy 44.851917 -98.601448) (xy 45.105165 -98.603925)
     (xy 45.369163 -98.605362) (xy 45.638192 -98.605757) (xy 45.906532 -98.605111) )(layer Eco1.User) (width  0.010000)
  )
)
