EESchema Schematic File Version 4
EELAYER 30 0
EELAYER END
$Descr A4 11693 8268
encoding utf-8
Sheet 1 1
Title ""
Date ""
Rev ""
Comp ""
Comment1 ""
Comment2 ""
Comment3 ""
Comment4 ""
$EndDescr
$Comp
L Kosmo:Pot_Hole H1
U 1 1 5F0BE8D9
P 2000 1500
F 0 "H1" H 2185 1492 50  0000 L CNN
F 1 "Pot_Hole" H 2185 1401 50  0000 L CNN
F 2 "Kosmo_panel:Kosmo_Pot_Hole" H 2000 1500 50  0001 C CNN
F 3 "" H 2000 1500 50  0001 C CNN
	1    2000 1500
	1    0    0    -1  
$EndComp
$Comp
L power:GND #PWR01
U 1 1 5F0C12BE
P 2000 1750
F 0 "#PWR01" H 2000 1500 50  0001 C CNN
F 1 "GND" H 2005 1577 50  0000 C CNN
F 2 "" H 2000 1750 50  0001 C CNN
F 3 "" H 2000 1750 50  0001 C CNN
	1    2000 1750
	1    0    0    -1  
$EndComp
$Comp
L Kosmo:Pot_Hole H5
U 1 1 5F0C9197
P 2750 1500
F 0 "H5" H 2935 1492 50  0000 L CNN
F 1 "Pot_Hole" H 2935 1401 50  0000 L CNN
F 2 "Kosmo_panel:Kosmo_Pot_Hole" H 2750 1500 50  0001 C CNN
F 3 "" H 2750 1500 50  0001 C CNN
	1    2750 1500
	1    0    0    -1  
$EndComp
$Comp
L power:GND #PWR07
U 1 1 5F0C919D
P 2750 1750
F 0 "#PWR07" H 2750 1500 50  0001 C CNN
F 1 "GND" H 2755 1577 50  0000 C CNN
F 2 "" H 2750 1750 50  0001 C CNN
F 3 "" H 2750 1750 50  0001 C CNN
	1    2750 1750
	1    0    0    -1  
$EndComp
$Comp
L power:GND #PWR02
U 1 1 61589BF7
P 2000 2700
F 0 "#PWR02" H 2000 2450 50  0001 C CNN
F 1 "GND" H 2005 2527 50  0000 C CNN
F 2 "" H 2000 2700 50  0001 C CNN
F 3 "" H 2000 2700 50  0001 C CNN
	1    2000 2700
	1    0    0    -1  
$EndComp
$Comp
L Kosmo:Jack_Hole H4
U 1 1 61589BFD
P 2600 2500
F 0 "H4" H 2735 2492 50  0000 L CNN
F 1 "Jack_Hole" H 2735 2401 50  0000 L CNN
F 2 "Kosmo_panel:Kosmo_Jack_Hole" H 2600 2650 50  0001 C CNN
F 3 "" H 2600 2500 50  0001 C CNN
	1    2600 2500
	1    0    0    -1  
$EndComp
$Comp
L power:GND #PWR05
U 1 1 61589C03
P 2600 2700
F 0 "#PWR05" H 2600 2450 50  0001 C CNN
F 1 "GND" H 2605 2527 50  0000 C CNN
F 2 "" H 2600 2700 50  0001 C CNN
F 3 "" H 2600 2700 50  0001 C CNN
	1    2600 2700
	1    0    0    -1  
$EndComp
$Comp
L Kosmo:Jack_Hole H2
U 1 1 6158A377
P 2000 3500
F 0 "H2" H 2135 3492 50  0000 L CNN
F 1 "Jack_Hole" H 2135 3401 50  0000 L CNN
F 2 "Kosmo_panel:Kosmo_Jack_Hole" H 2000 3650 50  0001 C CNN
F 3 "" H 2000 3500 50  0001 C CNN
	1    2000 3500
	1    0    0    -1  
$EndComp
$Comp
L power:GND #PWR03
U 1 1 6158A37D
P 2000 3700
F 0 "#PWR03" H 2000 3450 50  0001 C CNN
F 1 "GND" H 2005 3527 50  0000 C CNN
F 2 "" H 2000 3700 50  0001 C CNN
F 3 "" H 2000 3700 50  0001 C CNN
	1    2000 3700
	1    0    0    -1  
$EndComp
$Comp
L Kosmo:Jack_Hole H7
U 1 1 6158B267
P 3500 2500
F 0 "H7" H 3635 2492 50  0000 L CNN
F 1 "Jack_Hole" H 3635 2401 50  0000 L CNN
F 2 "Kosmo_panel:Kosmo_Jack_Hole" H 3500 2650 50  0001 C CNN
F 3 "" H 3500 2500 50  0001 C CNN
	1    3500 2500
	1    0    0    -1  
$EndComp
$Comp
L power:GND #PWR09
U 1 1 6158B26D
P 3500 2700
F 0 "#PWR09" H 3500 2450 50  0001 C CNN
F 1 "GND" H 3505 2527 50  0000 C CNN
F 2 "" H 3500 2700 50  0001 C CNN
F 3 "" H 3500 2700 50  0001 C CNN
	1    3500 2700
	1    0    0    -1  
$EndComp
$Comp
L Kosmo:Jack_Hole H8
U 1 1 6158B273
P 4100 2500
F 0 "H8" H 4235 2492 50  0000 L CNN
F 1 "Jack_Hole" H 4235 2401 50  0000 L CNN
F 2 "Kosmo_panel:Kosmo_Jack_Hole" H 4100 2650 50  0001 C CNN
F 3 "" H 4100 2500 50  0001 C CNN
	1    4100 2500
	1    0    0    -1  
$EndComp
$Comp
L power:GND #PWR011
U 1 1 6158B279
P 4100 2700
F 0 "#PWR011" H 4100 2450 50  0001 C CNN
F 1 "GND" H 4105 2527 50  0000 C CNN
F 2 "" H 4100 2700 50  0001 C CNN
F 3 "" H 4100 2700 50  0001 C CNN
	1    4100 2700
	1    0    0    -1  
$EndComp
$Comp
L Kosmo:Jack_Hole H9
U 1 1 6158BDC7
P 4100 3500
F 0 "H9" H 4235 3492 50  0000 L CNN
F 1 "Jack_Hole" H 4235 3401 50  0000 L CNN
F 2 "Kosmo_panel:Kosmo_Jack_Hole" H 4100 3650 50  0001 C CNN
F 3 "" H 4100 3500 50  0001 C CNN
	1    4100 3500
	1    0    0    -1  
$EndComp
$Comp
L power:GND #PWR012
U 1 1 6158BDCD
P 4100 3700
F 0 "#PWR012" H 4100 3450 50  0001 C CNN
F 1 "GND" H 4105 3527 50  0000 C CNN
F 2 "" H 4100 3700 50  0001 C CNN
F 3 "" H 4100 3700 50  0001 C CNN
	1    4100 3700
	1    0    0    -1  
$EndComp
$Comp
L Kosmo:Jack_Hole H3
U 1 1 6158D209
P 2500 4500
F 0 "H3" H 2635 4492 50  0000 L CNN
F 1 "Jack_Hole" H 2635 4401 50  0000 L CNN
F 2 "Kosmo_panel:Kosmo_Jack_Hole" H 2500 4650 50  0001 C CNN
F 3 "" H 2500 4500 50  0001 C CNN
	1    2500 4500
	1    0    0    -1  
$EndComp
$Comp
L power:GND #PWR04
U 1 1 6158D20F
P 2500 4700
F 0 "#PWR04" H 2500 4450 50  0001 C CNN
F 1 "GND" H 2505 4527 50  0000 C CNN
F 2 "" H 2500 4700 50  0001 C CNN
F 3 "" H 2500 4700 50  0001 C CNN
	1    2500 4700
	1    0    0    -1  
$EndComp
$Comp
L Kosmo:Jack_Hole H6
U 1 1 6158D215
P 3100 4500
F 0 "H6" H 3235 4492 50  0000 L CNN
F 1 "Jack_Hole" H 3235 4401 50  0000 L CNN
F 2 "Kosmo_panel:Kosmo_Jack_Hole" H 3100 4650 50  0001 C CNN
F 3 "" H 3100 4500 50  0001 C CNN
	1    3100 4500
	1    0    0    -1  
$EndComp
$Comp
L power:GND #PWR08
U 1 1 6158D21B
P 3100 4700
F 0 "#PWR08" H 3100 4450 50  0001 C CNN
F 1 "GND" H 3105 4527 50  0000 C CNN
F 2 "" H 3100 4700 50  0001 C CNN
F 3 "" H 3100 4700 50  0001 C CNN
	1    3100 4700
	1    0    0    -1  
$EndComp
$Comp
L power:GND #PWR013
U 1 1 6158DEC8
P 5000 2050
F 0 "#PWR013" H 5000 1800 50  0001 C CNN
F 1 "GND" H 5005 1877 50  0000 C CNN
F 2 "" H 5000 2050 50  0001 C CNN
F 3 "" H 5000 2050 50  0001 C CNN
	1    5000 2050
	1    0    0    -1  
$EndComp
$Comp
L Kosmo:Mounting_Holes H10
U 1 1 6158DECE
P 5000 1700
F 0 "H10" H 4950 1750 50  0000 L CNN
F 1 "Panel" H 4900 1650 50  0000 L CNN
F 2 "Kosmo_panel:Kosmo_Panel_Dual_Slotted_Mounting_Holes" H 5000 1700 50  0001 C CNN
F 3 "" H 5000 1700 50  0001 C CNN
	1    5000 1700
	1    0    0    -1  
$EndComp
$Comp
L power:GND #PWR014
U 1 1 6158E65E
P 5500 2050
F 0 "#PWR014" H 5500 1800 50  0001 C CNN
F 1 "GND" H 5505 1877 50  0000 C CNN
F 2 "" H 5500 2050 50  0001 C CNN
F 3 "" H 5500 2050 50  0001 C CNN
	1    5500 2050
	1    0    0    -1  
$EndComp
$Comp
L Kosmo:Mounting_Holes H11
U 1 1 6158E664
P 5500 1700
F 0 "H11" H 5450 1750 50  0000 L CNN
F 1 "Panel" H 5400 1650 50  0000 L CNN
F 2 "Kosmo_panel:Kosmo_Panel_Dual_Slotted_Mounting_Holes" H 5500 1700 50  0001 C CNN
F 3 "" H 5500 1700 50  0001 C CNN
	1    5500 1700
	1    0    0    -1  
$EndComp
$Comp
L AO_symbols:Graphic GRAF1
U 1 1 6158EA37
P 5350 3050
F 0 "GRAF1" H 5628 3096 50  0000 L CNN
F 1 "Holes" H 5628 3005 50  0000 L CNN
F 2 "neuron_panel:neuron_panel_holes" H 5350 3050 50  0001 C CNN
F 3 "" H 5350 3050 50  0001 C CNN
F 4 "DNF" H 5350 3050 50  0001 C CNN "Config"
	1    5350 3050
	1    0    0    -1  
$EndComp
$Comp
L AO_symbols:Graphic GRAF2
U 1 1 6158ED80
P 5350 3450
F 0 "GRAF2" H 5628 3496 50  0000 L CNN
F 1 "Art" H 5628 3405 50  0000 L CNN
F 2 "neuron_panel:neuron_panel_art" H 5350 3450 50  0001 C CNN
F 3 "" H 5350 3450 50  0001 C CNN
F 4 "DNF" H 5350 3450 50  0001 C CNN "Config"
	1    5350 3450
	1    0    0    -1  
$EndComp
$Comp
L AO_symbols:Graphic GRAF3
U 1 1 6158F208
P 5350 3850
F 0 "GRAF3" H 5628 3896 50  0000 L CNN
F 1 "CC0 logo" H 5628 3805 50  0000 L CNN
F 2 "AO_tht:CC0_logo" H 5350 3850 50  0001 C CNN
F 3 "" H 5350 3850 50  0001 C CNN
F 4 "DNF" H 5350 3850 50  0001 C CNN "Config"
	1    5350 3850
	1    0    0    -1  
$EndComp
$Comp
L Kosmo:Mounting_Hole H12
U 1 1 6181C139
P 4050 4600
F 0 "H12" H 4150 4649 50  0000 L CNN
F 1 "Mounting_Hole" H 4150 4558 50  0000 L CNN
F 2 "Kosmo_panel:Kosmo_Panel_Mounting_Hole" H 4050 4600 50  0001 C CNN
F 3 "" H 4050 4600 50  0001 C CNN
	1    4050 4600
	1    0    0    -1  
$EndComp
NoConn ~ 4050 4700
$Comp
L Kosmo:Mounting_Hole H13
U 1 1 6181C985
P 4800 4600
F 0 "H13" H 4900 4649 50  0000 L CNN
F 1 "Mounting_Hole" H 4900 4558 50  0000 L CNN
F 2 "Kosmo_panel:Kosmo_Panel_Mounting_Hole" H 4800 4600 50  0001 C CNN
F 3 "" H 4800 4600 50  0001 C CNN
	1    4800 4600
	1    0    0    -1  
$EndComp
NoConn ~ 4800 4700
$EndSCHEMATC
